[{
        "name": "lexisnexis_biid_ip",
        "value": "https://wsonline.seisint.com/WsIdentity?ver_=2.09"
    },
    {
        "name": "lexisnexis_LienJudgment_ip",
        "value": "https://wsonline.seisint.com/WsAccurint?ver_=2.09"
    },
    {
        "name": "lexisnexis_Foreclosure_ip",
        "value": "https://wsonline.seisint.com/WsAccurint?ver_=2.09"
    },
    {
        "name": "lexisnexis_Bankruptcy_ip",
        "value": "https://wsonline.seisint.com/WsAccurint?ver_=2.09"
    },
    {
        "name": "lexisNexisBusinessSearchUrl",
        "value": "https://wsonline.seisint.com/WsAccurint?ver_=1.87"
    },
    {
        "name": "lexisNexisBusinessGetReportUrl",
        "value": "https://wsonline.seisint.com/WsAccurint?ver_=1.87"
    },
    {
        "name": "lexisnexis_KBA_Continuation",
        "value": "https://staging.ws.idms.lexisnexis.com/carbon/ws"
    },
    {
        "name": "lexisnexis_KBA_Verify",
        "value": "https://staging.ws.idms.lexisnexis.com/carbon/ws"
    },
    {
        "name": "credit_report_internal_url",
        "value": "https://transport5.ec.equifax.com/ists/stspost"
    },
    {
        "name": "equifax_business_internal_url",
        "value": "https://commercial-ppe.equifax.com/sbeppe/sbeservices/DecisionService"
    },
    {
        "name":"equifax_business_activity_monitoring_url",
        "value":"https://commercial-ppe.equifax.com/sbeppe/sbeservices/cxf"
    },
    {
        "name":"equifax_business_activity_monitoring_view_alert_url",
        "value":"https://commercial-ppe.equifax.com/sbeppe/sbeservices/cxf"
    }
]