{
    "baseUrl": "http://10.101.0.22",
    "authorizationToken": "eyJhbGciOiJIUzI1NiIsInR5cCI6IkpXVCJ9.eyJpc3MiOiJsZW5kZm91bmRyeSIsImlhdCI6IjIwMTgtMDItMjdUMTQ6NDU6MDQuMTEwOTgzN1oiLCJleHAiOm51bGwsInN1YiI6InNpZ21hIiwidGVuYW50Ijoic2lnbWEiLCJzY29wZSI6bnVsbCwiSXNWYWxpZCI6dHJ1ZX0.FyOtntXmhYQrCoO7eqwB8S_D74ZNAdx-A7FpqSvZth4",
    "templateConfiguration": {
        "servicePort": ":7014"
    },
    "ruleConfiguration": {
        "servicePort": ":7011"
    },
    "configurationConfiguration": {
        "servicePort": ":7001"
    },
    "lookupServiceConfiguration": {
        "servicePort": ":7005"
    },
    "productServiceConfiguration": {
        "servicePort": ":7053"
    },
    "filterServiceConfiguration": {
        "servicePort": ":7052/"
    },
    "data_replacement": [{
            "name": "application_prefix",
            "value": "DV"
        },
        {
            "name": "external_ip",
            "value": "qa.demo.lendfoundry.com"
        },
        {
            "name": "internal_ip",
            "value": "10.101.0.22"
        },
        {
            "name": "plaid_Webhook_URL",
            "value": "https://qa.demo.lendfoundry.com/v1/webhooks/hook/c2lnbWEtcGxhaWRub3RpZmljYXRpb24=/plaidnotification"
        },
        {
            "name": "plaid_simulation_URL",
            "value": "http://10.101.0.22:7022/plaid"
        },
        {
            "name": "finicity_webhook_URL",
            "value": "http://qa.demo.lendfoundry.com/v1/webhooks/hook/cGJncC1maW5pY2l0eQ==/finicity"
        },
        {
            "name": "perfectaudit_webhook_URL",
            "value": "http://10.101.0.22/v1/webhooks/hook/c2lnbWEtcGVyZmVjdGF1ZGl0=/perfectaudit"
        },
        {
            "name": "mongo_connectionstring",
            "value": "mongodb://fc360:fcSigma@10.100.0.31:27019/admin"
        }
    ]
}
