{
    "_t": "LendFoundry.ProductRule.Lookup, LendFoundry.ProductRule.Abstractions",
    "TenantId": "sigma",
    "EntityType": "application",
    "ProductId": "mcaloc",
    "RuleName": "ItemLoginRequiredEmailData",
    "Description": "ItemLoginRequiredEmailData",
    "DataAttributeStoreName": "application",
    "EffectiveDate": {
        "Time": {
            "DateTime": ISODate("2017-05-15T00:00:00.000Z"),
            "Ticks": NumberLong(636304032000000000),
            "Offset": 0
        },
        "Hour": "2017-05-15-00-h",
        "Day": "2017-05-15-d",
        "Week": "2017-20-w",
        "Month": "2017-05-m",
        "Quarter": "2017-2-q",
        "Year": "2017-y"
    },
    "ExpiryDate": {
        "Time": {
            "DateTime": ISODate("2018-12-30T18:30:00.000Z"),
            "Ticks": NumberLong(636818339400000000),
            "Offset": 330.0
        },
        "Hour": "2018-12-31-00-h",
        "Day": "2018-12-31-d",
        "Week": "2018-53-w",
        "Month": "2018-12-m",
        "Quarter": "2018-4-q",
        "Year": "2018-y"
    },
    "RuleClass": "dataextraction",
    "RuleType": "DataAttribute",
    "RuleDetail": {
        "_t": "LendFoundry.ProductRule.RuleDetail, LendFoundry.ProductRule.Abstractions",
        "DERuleName": "ItemLoginRequiredEmailData",
        "RuleVersion": "1.0",
        "RequiredSources": [
            "application"
        ],
        "OptionalSources": []
    },
    "CreatedDate": {
        "Time": {
            "DateTime": ISODate("2017-05-16T09:17:44.859Z"),
            "Ticks": NumberLong(636305086648595590),
            "Offset": -240
        },
        "Hour": "2017-05-16-05-h",
        "Day": "2017-05-16-d",
        "Week": "2017-20-w",
        "Month": "2017-05-m",
        "Quarter": "2017-2-q",
        "Year": "2017-y"
    },
    "LastUpdatedDate": null,
    "CreatedBy": "5909b8a729b156e83bd2e126",
    "LastUpdatedBy": null
}