{
  "name": "AddendumAgreement",
  "title": "AddendumAgreement",
  "format": "Html",
  "body": "{{body}}",
  "version": "1.0",
  "properties": {
      "pdfSettings": {
          "pageSize": "A4",
          "pageWidth": "21cm",
          "pageHeight": "36cm",
          "orientation": "portrait",
          "dpi": 300,
          "imageQuality": 90,
          "marginTop": "10",
          "marginBottom": "10",
          "marginLeft": "10",
          "marginRight": "10"
      },
      "signature": {
          "ReturnUrl": "",
          "BrandId": "",
          "DocumentName": "AddendumAgreement",
          "EmailSubject": "Addendum Agreement",
          "SignerConfiguration": [
              {
                  "RecipientId": 1000,
                  "RoutingOrder": 1,
                  "Tabs": [
                      
                      {
                          "TabType": "SignHere",
                          "Configuration": {
                              "AnchorCaseSensitive": true,
                              "AnchorMatchWholeWord": true,
                              "AnchorString": "AUTHSIGNATURE",
                              "AnchorXOffset": 0,
                              "AnchorYOffset": 0,
                              "Name": "SignHere",
                              "PageNumber": 1,
                              "TabOrder": 1,
                              "XPosition": 0,
                              "YPosition": 0
                          }
                      },
                     
                      {
                          "TabType": "TextTab",
                          "Configuration": {
                              "AnchorCaseSensitive": true,
                              "AnchorMatchWholeWord": true,
                              "AnchorString": "BANKPORTAL_WEBSITE",
                              "AnchorXOffset": 0,
                              "AnchorYOffset": 0,
                              "Name": "BankPortalWebsite",
                              "PageNumber": 6,
                              "TabOrder": 1,
                              "XPosition": 0,
                              "YPosition": 0
                          }
                      },
                      {
                          "TabType": "TextTab",
                          "Configuration": {
                              "AnchorCaseSensitive": true,
                              "AnchorMatchWholeWord": true,
                              "AnchorString": "USERNAME",
                              "AnchorXOffset": 0,
                              "AnchorYOffset": 0,
                              "Name": "Username",
                              "PageNumber": 6,
                              "TabOrder": 1,
                              "XPosition": 0,
                              "YPosition": 0
                          }
                      },
                      {
                          "TabType": "TextTab",
                          "Configuration": {
                              "AnchorCaseSensitive": true,
                              "AnchorMatchWholeWord": true,
                              "AnchorString": "PASSWORD",
                              "AnchorXOffset": 0,
                              "AnchorYOffset": 0,
                              "Name": "Password",
                              "PageNumber": 6,
                              "TabOrder": 1,
                              "XPosition": 0,
                              "YPosition": 0
                          }
                      },
                      {
                          "TabType": "TextTab",
                          "Configuration": {
                              "AnchorCaseSensitive": true,
                              "AnchorMatchWholeWord": true,
                              "AnchorString": "SECURITY_QUESTION_1",
                              "AnchorXOffset": 0,
                              "AnchorYOffset": 0,
                              "Name": "Question1",
                              "PageNumber": 6,
                              "TabOrder": 1,
                              "XPosition": 0,
                              "YPosition": 0
                          }
                      },
                      {
                          "TabType": "TextTab",
                          "Configuration": {
                              "AnchorCaseSensitive": true,
                              "AnchorMatchWholeWord": true,
                              "AnchorString": "SECURITY_QUESTION_2",
                              "AnchorXOffset": 0,
                              "AnchorYOffset": 0,
                              "Name": "Queston2",
                              "PageNumber": 6,
                              "TabOrder": 1,
                              "XPosition": 0,
                              "YPosition": 0
                          }
                      },
                      {
                          "TabType": "TextTab",
                          "Configuration": {
                              "AnchorCaseSensitive": true,
                              "AnchorMatchWholeWord": true,
                              "AnchorString": "SECURITY_QUESTION_3",
                              "AnchorXOffset": 0,
                              "AnchorYOffset": 0,
                              "Name": "Question3",
                              "PageNumber": 6,
                              "TabOrder": 1,
                              "XPosition": 0,
                              "YPosition": 0
                          }
                      },
                     
                      {
                          "TabType": "DateSigned",
                          "Configuration": {
                              "AnchorCaseSensitive": true,
                              "AnchorMatchWholeWord": true,
                              "AnchorString": "SIGNED_DATE1",
                              "AnchorXOffset": 0,
                              "AnchorYOffset": 0,
                              "Name": "DateSigned",
                              "PageNumber": 6,
                              "TabOrder": 1,
                              "XPosition": 0,
                              "YPosition": 0
                          }
                      },
                      {
                          "TabType": "TextTab",
                          "Configuration": {
                              "AnchorCaseSensitive": true,
                              "AnchorMatchWholeWord": true,
                              "AnchorString": "OTHER_AUTH_INFO",
                              "AnchorXOffset": 0,
                              "AnchorYOffset": 0,
                              "Name": "OtherInformation",
                              "PageNumber": 6,
                              "TabOrder": 1,
                              "XPosition": 0,
                              "YPosition": 0
                          }
                      }
                  ]
              },
              {
                  "RecipientId": 1001,
                  "RoutingOrder": 2,
                  "Tabs": [
                    
                  ]
              },
              {
                  "RecipientId": 1002,
                  "RoutingOrder": 3,
                  "Tabs": [
                    
                  ]
              },
              {
                  "RecipientId": 1003,
                  "RoutingOrder": 4,
                  "Tabs": [
                    
                  ]
              }
          ],
          "EventConfigurations": {
              "ListnerUrl": "https://www.google.co.in",
              "GetDocumentFields": true,
              "GetDocuments": false,
              "GetRejectionReason": true,
              "EnableLogging": true,
              "RecipientEvent": [
                  {
                      "EventType": "Completed",
                      "GetDocumetOnEvent": false
                  }
              ]
          },
          "ExpirationSetting": {
              "ExpireAfterDays": 2,
              "WarningExpireBeforeDays": 1
          },
          "ReminderSetting": {
              "FirstReminderAfterDays": 1,
              "ReminderInterval": 2
          }
      }
  },
  "id": "5a449c82d2da920006b4d3c5"
}