{
    "searchname": "LocAllDrawdown",
    "searchFilterView": [],
    "inTagsSearch": [],
    "notInTagsSearch": [],
    "operator": "or",
    "projections": {
        "_id": 0,
        "LocNumber": 1,
        "DrawDownId": 1,
        "LocAmount": 1,
        "TotalCreditLimit": 1,
        "RequestedAmount": 1,
        "NeedByDate": 1,
        "Submitted": 1,
        "ProductId": 1,
        "LoanAmount": 1,
        "StatusWorkFlowId": 1,
        "AmountFunded": 1,
        "ExpiryDate": 1,
        "SalesRepName": 1,
        "RepaymentAmount": 1,
        "ApprovedAmount": 1,
        "DrawDownDate": 1,
        "StatusName": 1
    },
    "sorts": {
        "DrawDownId": -1
    },
    "replaceChar": true,
    "replacementChars": {
        "_": "$"
    }
}