{
    "searchname": "FeesAllData",
    "searchFilterView": [
        {
            "OldPaymentIdReference": ""
        }
    ],
    "inTagsSearch": [],
    "notInTagsSearch": [],
    "operator": "and",
    "replaceChar": true,
    "replacementChars": {
        "_": "$"
    },
    "projections": {
        "_id": 0,
        "GST": 1,
        "FeeName": 1,
        "IGST": 1,
        "CGST": 1,
        "SGST": 1,
        "FeeAmount": 1,
        "GSTAmount": 1
    },
    "sorts": {
        "GST": -1
    },
    "exportFields": [
        "GST"
    ],
    "exportFieldNames": [
        "GST"
    ]
}