{
    "initialStatus": "Created/Lead",
    "initialLeadStatus": "100.10",
    "expiryDays": "60",
    "DefaultProductId": "mca",
    "LocExpiryInMonths": "6",
    "Database":"business-applications" 
}