{
    "events": [
        {
            "Name": "BankLinkRequest",
            "DrawDownNumber": "{Data.EntityId}",
            "ApplyTags": [
                "Pending Bank Linking"
            ]
        }
      
    ],
    "Database":"drawdown-filters"  
}