{
  "webhooks": {
    "plaid": "AccountAndTransactionRequested",
    "docusign": "DocusignCompleted",
    "plaidmanual": "CSVAccountAndTransactionRequested",
    "perfectAudit": "PDFAccountAndTransactionRequested"
  },
  "WebhookTenantTokenId": "Ez3rbhyAadREgNQRkoiN/o3LM9drqmezb76uVbgjFRqjFldusD1I"
}