{
  "Bankruptcy": {
    "BankruptcyUrl": "http://{{external_ip}}:7022/bankruptcy",
    "UserName": "CAPLLCXML",
    "Password": "Sigma@123",
    "EndUser": {
      "ReferenceCode": "",
      "BillingCode": "",
      "QueryId": "",
      "GLBPurpose": "3",
      "DLPurpose": "1",
      "MaxWaitSeconds": 10000,
      "AccountNumber": "AccountNumber",
      "EndUser": {
        "City": "",
        "CompanyName": "",
        "State": "",
        "StreetAddress1": "",
        "Zip5": ""
      }
    },
    "Options": {
      "FCRAPurpose": "1",
      "ReturnCount": "10",
      "StartingRecord": "1"
    }
  },
  "CriminalRecord": {
    "CriminalRecordUrl": "http://{{external_ip}}:7022/criminalrecord",
    "UserName": "CAPLLCXML",
    "Password": "Sigma@123",
    "EndUser": {
      "ReferenceCode": "",
      "BillingCode": "",
      "QueryId": "",
      "GLBPurpose": "3",
      "DLPurpose": "1",
      "MaxWaitSeconds": 10000,
      "AccountNumber": "AccountNumber",
      "EndUser": {
        "City": "",
        "CompanyName": "",
        "State": "",
        "StreetAddress1": "",
        "Zip5": ""
      }
    },
    "Options": {
      "FCRAPurpose": "1",
      "ReturnCount": "10",
      "StartingRecord": "1"
    }
  }
}