{
  "tokenSecret": "Fk7-A5npmXhDwx7t3oSX47v5tG0",
  "apiBaseUrl": "http://{{external_ip}}:7022",
  "searchApiUrl": "/businesses/",
  "consumerSecret": "bdkAdwLsGAcCoNKJMyZsCWH-jUs",
  "businessApiUrl": "/businesses/",
  "phonePrefix": "+",
  "token": "HX2mFfrM-9OIuP1XstU8a0loWZz6ENXk",
  "consumerKey": "JoqnjKwlWuZ_sR1XBDJG-A",
  "grantType": "client_credentials",
  "phoneApiUrl": "/businesses/"
}