{
    "FinicityAppKey": "3477010faf371f73b288a3b978253c72",
    "PartnerID": "2445582472071",
    "PartnerSecret": "Ec19VwvDSTsBlD5ax7lV",
    "APIURL": "https://api.finicity.com",
    "UseProxy": false,
    "ProxyUrl": "",
    "TLSVersion": "1.2",
    "IsLive": false,
    "AccessTokenEndpoint": "aggregation/v2/partners/authentication",
    "SearchInstitutionEndpoint": "aggregation/v1/institutions",
    "InstitutionDetailsEndpoint": "aggregation/v1/institutions/{InstitutionId}/details",
    "AddCustomerStagingEndpoint": "aggregation/v1/customers/testing",
    "AddCustomerProductionEndpoint": "aggregation/v1/customers/active",
    "SubmitLoginEndpoint": "aggregation/v1/customers/{CustomerId}/institutions/{InstitutionId}/accounts",
    "MFAEndpoint": "aggregation/v1/customers/{CustomerId}/institutions/{InstitutionId}/accounts/mfa",
    "ActivateAccountEndPoint": "aggregation/v2/customers/{CustomerId}/institutions/{InstitutionId}/accounts",
    "AllowedAccountTypes": [
        "checking",
        "savings"
    ],
    "RefreshAccountEndpoint": "aggregation/v1/customers/{CustomerId}/institutionLogins/{InstitutionLoginId}/accounts",
    "RefreshAccountMFAEndpoint": "aggregation/v1/customers/{CustomerId}/institutionLogins/{InstitutionLoginId}/accounts/mfa",
    "RefresCustomerAccountEndpoint": "aggregation/v1/customers/{CustomerId}/accounts",
    "GetCustomerTransactionsEndpoint": "aggregation/v3/customers/{CustomerId}/transactions",
    "GetCustomerAccountTransactionsEndpoint": "aggregation/v3/customers/{CustomerId}/accounts/{AccountId}/transactions",
    "StartIndexForTransactions": 1,
    "LimitRecordsForTransactions": 1000,
    "SortDirectionForTransaction": "desc",
    "IncludePendingTransactions": false,
    "EnableDisableTxPushEndpoint": "aggregation/v1/customers/{CustomerId}/accounts/{AccountId}/txpush",
    "DeleteTxPushEndpoint": "aggregation/v1/customers/{CustomerId}/subscriptions/{SubscriptionId}",
    "ACHDetailEndpoint": "aggregation/v1/customers/{CustomerId}/accounts/{AccountId}/details",
    "ACHDetailMFAEndpoint": "aggregation/v1/customers/{CustomerId}/accounts/{AccountId}/details/mfa",
    "CashflowVerificationEndpoint": "aggregation/v1/customers/{CustomerId}/accounts/{AccountId}/transactions/historic",
    "CashflowVerificationMFAEndpoint": "aggregation/v1/customers/{CustomerId}/accounts/{AccountId}/transactions/historic/mfa",
    "GetCustomerAccountsEndpoint": "aggregation/v1/customers/{CustomerId}/accounts",
    "GetCustomerAccountsByInstitutionEndpoint": "aggregation/v1/customers/{CustomerId}/institutions/{InstitutionId}/accounts",
    "GenerateConnectLinkEndpoint": "connect/v1/generate",
    "GetCustomerAccountDetailsEndpoint": "aggregation/v1/customers/{CustomerId}/accounts/{AccountId}",
    "ModifyCustomerAccountEndpoint": "aggregation/v1/customers/{CustomerId}/accounts/{AccountId}",
    "DeleteCustomerAccountEndpoint": "aggregation/v1/customers/{CustomerId}/accounts/{AccountId}",
    "GetLoginFormEndpoint": "aggregation/v1/customers/{CustomerId}/accounts/{AccountId}/loginForm",
    "GetCustomersEndpoint": "aggregation/v1/customers",
    "GetCustomerEndpoint": "aggregation/v1/customers/{CustomerId}",
    "ModifyPartnerSecretKeyEndpoint": "aggregation/v2/partners/authentication",
    "StartIndexForBanks": 1,
    "LimitRecordsForBank": 50,
    "NoOfDaysForTransactionRetrieval": 180,
    "IsAchServicesEnabled": true,
    "IsCashflowServicesEnabled": true,
    "IsTxPushEnabled": false,
    "LimitRecordsForCustomers": 100,
    "DeleteCustomerEndpoint": "aggregation/v1/customers/{CustomerId}",
    "TxPushCallBackURL": "{{finicity_webhook_URL}}",
    "AddTransactionEndpoint": "aggregation/v1/customers/{CustomerId}/accounts/{AccountId}/transactions",
    "ModifyLoginCredentialsEndpoint": "aggregation/v1/customers/{CustomerId}/institutionLogins/{InstitutionLoginId}",
    "TransactionPublishBatchSize": 100,
    "WaitDurationForTransaction": 1,
    "Database":"criskco"  
}