{
    "events": [
        {
            "Name": "INBOUND_HOOK_INVOKED",
            "EventName": "{Data.name}",
            "WebhookType": "{Data.Response.body.webhook_type}",
            "WebhookCode": "{Data.Response.body.webhook_code}",
            "ItemId": "{Data.Response.body.item_id}",
            "Error": "{Data.Response.body.error}",
            "NewTransactions": "{Data.Response.body.new_transactions}",
            "RemovedTransactions": "{Data.Response.body.removed_transactions}",
            "PlaidDERuleName": "ExtractPlaidWebhookNotification",
            "Response": "{Data.Response}",
            "Request": "{Data.Request}",
            "EntityId": "{Data.EntityId}",
            "EntityType": "{Data.EntityType}",
            "FinicityMethodToExecute": "InBoundHookInvokedHandler",
            "FinicityCompletionEventName": "",
            "FinicityDERuleName": "ExtractWebHookInvockedData"
        }
    ],
    "TransactionDays": "180",
    "WebhookUrl": "{{plaid_Webhook_URL}}",
    "accountTypes": [
        "checking",
        "savings"
    ],
    "AcceptedFileIn": [
        ".csv"
    ],
    "MaxUploadFileSizeLimit": "7",
    "FilterInMonths": "2",
    "dateFormat": "yyyy-MM-dd",
    "FinicityConfiguration": {
        "FinicitySyndicationURL": "http://{{internal_ip}}:7079",
        "GetAccessTokenEndPoint": "{entitytype}/{entityid}/accesstoken",
        "AddCustomerEndPoint": "{entitytype}/{entityid}/customer/add",
        "GenerateConnectLinkEndPoint": "{entitytype}/{entityid}/connect/generate",
        "GetCustomerAccountsEndPoint": "{entitytype}/{entityid}/customer/accounts",
        "GetTransactionforAllAccountEndPoint": "{entitytype}/{entityid}/customer/transactions",
        "EnableTxPushEndPoint": "{entitytype}/{entityid}/customer/account/txpush/enable",
        "LoadHistoricTransactionEndPoint": "{entitytype}/{entityid}/account/transactions/historic/load",
        "AddTestTransactionEndPoint": "transaction/add",
        "AuthorizationToken": "Bearer eyJhbGciOiJIUzI1NiIsInR5cCI6IkpXVCJ9.eyJpc3MiOiJsZW5kZm91bmRyeSIsImlhdCI6IjIwMTgtMDItMjdUMTQ6NDU6MDQuMTEwOTgzN1oiLCJleHAiOm51bGwsInN1YiI6InNpZ21hIiwidGVuYW50Ijoic2lnbWEiLCJzY29wZSI6bnVsbCwiSXNWYWxpZCI6dHJ1ZX0.FyOtntXmhYQrCoO7eqwB8S_D74ZNAdx-A7FpqSvZth4"
    },
    "DeleteTokenRule": "plaid_token_delete_rule",
    "Database":"ibv"
}