{
    "searchname": "FundingReviewLoc",
    "searchFilterView": [
        {
            "StatusCode": {
                "_in": [
                    "700.50",
                    "900.70"
                ]
            }
        },
        {
            "ProductId": {
                "_in": [
                    "mcaloc"
                ]
            }
        }
    ],
    "inTagsSearch": [],
    "notInTagsSearch": [],
    "operator": "and",
    "projections": {
        "_id": 0,
        "ApplicationNumber": 1,
        "ProductId": 1,
        "Submitted": 1,
        "LegalBusinessName": 1,
        "BusinessApplicantName": 1,
        "BusinessPhone": 1,
        "RequestedAmount": 1,
        "StatusName": 1,
        "LastProgressDate": 1,
        "SourceType": 1,
        "StatusWorkFlowId": 1,
        "ApplicantId": 1,
        "Owners": 1
    },
    "sorts": {
        "ApplicationNumber": -1
    },
    "replaceChar": true,
    "replacementChars": {
        "_": "$"
    },
    "exportFields": [
        "ApplicationNumber",
        "ProductId",
        "Submitted.Time.DateTime",
        "LegalBusinessName",
        "Owners[0].FirstName",
        "Owners[0].LastName",
        "BusinessPhone",
        "RequestedAmount",
        "StatusName",
        "LastProgressDate.Time.DateTime",
        "SourceType"
    ],
    "exportFieldNames": [
        "App No.",
        "Product ID",
        "App. created date",
        "Business Name",
        "Owners First Name",
        "Owners Last Name",
        "Contact Number",
        "Req Loan Amount",
        "Status",
        "Last updated on",
        "Lead Source"
    ]
}