{
    "BaseUrl": "https://www.perfectaudit.com/api/v1",
    "CreateBookUrl": "/book/add",
    "UseSimulation": true,
    "SimulationUrl": "http://{{internal_ip}}:7022/ocrolus",
    "WebHookUrl": "{{PerfecAuditWebhookUrl}}",
    "Database":"ibv-perfectAuditData"
}