{
  "Token": "efR6yD4EZVdq-TInD4w2GZuIWM76OjaOVlGU5eBei1On8U7voglIbwSY29E3C2s42iJE-VAxFGDb1Dalk5ZEw7UhZNjmFF1BG8wpEyZJPNqsY1S1aorgSsdNHlzgWXYx",
  "ConsumerSecret": "bdkAdwLsGAcCoNKJMyZsCWH-jUs",
  "GrantType": "client_credentials",
  "PhoneApiUrl": "/v3/businesses/search/phone",
  "BusinessApiUrl": "/v2/business",
  "TokenSecret": "Fk7-A5npmXhDwx7t3oSX47v5tG0",
  "ConsumerKey": "JoqnjKwlWuZ_sR1XBDJG-A",
  "ApiBaseUrl": "https://api.yelp.com",
  "PhonePrefix": "+",
  "SearchApiUrl": "/v2/search"
}