{
    "willingorable":"Willing and Able",
    "willingorunable":"Willing and Unable",
    "unwillingorable":"Unwilling and Able",
    "unwillingunable":"Unwilling and Unable",
    "unresponsiveorunabletocontact":"Unresponsive and Unable to contact"
}