{
    "Statuses": {
        "Hold": "300.10"
    },
    "ReasonForHolding": "Other",
    "Mappings": {
        "STOP_ACCRUAL_ON": "stopaccrual",
        "RESTART_ACCRUAL_ON": "startaccrual",
        "STOP_AUTOPAY_ON": "stopautopay",
        "RESTART_AUTOPAY_ON": "startautopay",
        "AUTO_HOLD_LINE_ON": "autoholdlineon",
        "AUTO_UNHOLD_LINE_ON": "autounholdlineon"
    },
    "Events": [
        {
            "Name": "FailedPayment",
            "LoanNumber": "{Data.LoanNumber}"
        },
        {
            "Name": "PaymentMissed",
            "LoanNumber": "{Data.LoanNumber}"
        },
        {
            "Name": "PaymentReceived",
            "LoanNumber": "{Data.LoanNumber}"
        },
        {
            "Name": "NSFFailure",
            "LoanNumber": "{Data.LoanNumber}"
        },
        {
            "Name": "LoanScheduleCreated",
            "LoanNumber": "{Data.LoanNumber}"
        },
        {
            "Name": "DSLA_30_DAYS",
            "LoanNumber": "{Data.LoanNumber}"
        },
        {
            "Name": "DSLA_60_DAYS",
            "LoanNumber": "{Data.LoanNumber}"
        },
        {
            "Name": "DSLA_90_DAYS",
            "LoanNumber": "{Data.LoanNumber}"
        }
    ],
    "DrawDownPercentage": 2,
    "Database": "fee-processor"
}