{
    "searchname": "TransactionFeesData",
    "searchFilterView": [
        {
            "Amount": "",
            "LoanNumber": "",
            "TransactionType": {
                "_in": [
                    "payment",
                    "feepaid"
                ]
            }
        }
    ],
    "inTagsSearch": [],
    "notInTagsSearch": [],
    "operator": "and",
    "replaceChar": true,
    "replacementChars": {
        "_": "$"
    },
    "projections": {
        "_id": 0,
        "PaymentReferenceId": 1
    },
    "sorts": {
        "GST": -1
    },
    "exportFields": [
        "PaymentReferenceId"
    ],
    "exportFieldNames": [
        "PaymentReferenceId"
    ]
}