{
    "PurposeOfLoan": "purposeofloan",
    "BusinessTypes": "businesstypes",
    "Industry": "industry",
    "BusinessLocation": "BusinessLocation",
    "SourceType": "sourceType",
    "State": "state",
    "LoanTimeFrame": "loanTimeFrame",
    "LegalStatusOfBusiness": "legalStatusOfBusiness",
    "WhereToSell": "whereToSell",
    "TypeOfProductOrService": "typeOfProductOrService",
    "YesNo":"yesNo"
}