{
    "applicationCreation": {
        "owners": {
            "maxOwnersCount": 4
        }
    },
    "lmsAccess": true,
    "leadStatus": "100.10",
    "declinedStatus": [
        "100.91",
        "100.92",
        "100.93",
        "500.91",
        "500.92",
        "500.93",
        "700.91",
        "700.92",
        "700.93",
        "800.91",
        "800.92",
        "800.93",
        "900.91",
        "900.92",
        "900.93"
    ],
    "plaidConfigName": "plaidv2ibv",
    "drawdownStats": {
        "entityType": "drawdown",
        "workflowName": "DrawDownFlow",
        "fundingStatusCode": "200.70"
    },
    "enableReapplyFeature": false,
    "enableRenewFeature": true,
    "drawdownPortfolios": ["mcaloc", "lineofcredit"],
    "enableOfferTabForMCA": true,
    "mcaOfferGenerateStatusCode": "500.10",
    "pages": {
        "todo": {
            "isEnable": true,
            "modules": {
                "OfferDetail": true,
                "Stipulation": true,
                "AgreementDocuSign": true,
                "BankLink": true
            }
        },
        "documents": {
            "isEnable": false
        }
    },
    "transform":{
        "documents": {
            "transformObj": {
                "DocumentCategory": "documentCategory",
                "FileName": "fileName",
                "UploadedOn": "uploadedOn",
                "VerificationStatus": "verificationStatus"
            },
            "formatObj": {
                "uploadedOn": "dateTime",
                "verificationStatus": "boolean"
            }
        }
    }
}