{
    "name" : "application-status-changed-hook",
    "title" : "To keep SF informed about application progress",
    "url" : "http://{{internal_ip}}:7556",
    "method" : "post",
    "triggeredBy" : [ 
        {
            "event" : "ApplicationStatusChanged",
            "mergeWith" : {
                "EventName" : "ApplicationStatusChanged"
            }
        }, 
        {
            "event" : "VerificationDocumentReceived",
            "mergeWith" : {
                "EventName" : "DocumentUploaded"
            }
        },
        {
            "event" : "DocumentAdded",
            "mergeWith" : {
                "EventName" : "DocumentUploaded"
            }
        },
        {
            "event" : "SignedDocumentReceived",
            "mergeWith" : {
                "EventName" : "DocusignComplete"
            }
        },
        {
            "event" : "UpdateLeadRequested",
            "mergeWith" : {
                "EventName" : "LeadDataUpdated"
            }
        },
        {
            "event" : "LoanAgreementOut",
            "mergeWith" : {
                "EventName" : "DocusignRequested"
            }
        }
    ]
}
