{
  
    "_t" : "LendFoundry.ProductRule.Lookup, LendFoundry.ProductRule.Abstractions",
    "TenantId" : "sigma-india",
    "EntityType" : "application",
    "ProductId" : "mca",
    "RuleName" : "FinancialsVerification",
    "Description" : "Financials Verification",
    "DataAttributeStoreName" : null,
    "EffectiveDate" : {
        "Time" : {
            "DateTime" : ISODate("2017-05-15T00:00:00.000Z"),
            "Ticks" : NumberLong(636304032000000000),
            "Offset" : 0
        },
        "Hour" : "2017-05-15-00-h",
        "Day" : "2017-05-15-d",
        "Week" : "2017-20-w",
        "Month" : "2017-05-m",
        "Quarter" : "2017-2-q",
        "Year" : "2017-y"
    },
    "ExpiryDate" : {
        "Time" : {
            "DateTime" : ISODate("2018-12-30T18:30:00.000Z"),
            "Ticks" : NumberLong(636818339400000000),
            "Offset" : 330.0
        },
        "Hour" : "2018-12-31-00-h",
        "Day" : "2018-12-31-d",
        "Week" : "2018-53-w",
        "Month" : "2018-12-m",
        "Quarter" : "2018-4-q",
        "Year" : "2018-y"
    },
    "RuleClass" : "verification",
    "RuleType" : "Rule",
    "RuleDetail" : {
        "_t" : "LendFoundry.ProductRule.RuleDetail, LendFoundry.ProductRule.Abstractions",
        "DERuleName" : "verification_rule_financialsverification",
        "RuleVersion" : "1.0",
        "RequiredSources" : [ 
            "FinancialsVerificationData"
        ],
        "OptionalSources" : []
    },
    "CreatedDate" : {
        "Time" : {
            "DateTime" : ISODate("2017-05-15T13:51:27.432Z"),
            "Ticks" : NumberLong(636304386874325926),
            "Offset" : -240
        },
        "Hour" : "2017-05-15-09-h",
        "Day" : "2017-05-15-d",
        "Week" : "2017-20-w",
        "Month" : "2017-05-m",
        "Quarter" : "2017-2-q",
        "Year" : "2017-y"
    },
    "LastUpdatedDate" : null,
    "CreatedBy" : "5909b8a729b156e83bd2e126",
    "LastUpdatedBy" : null
}