{
    "None": "None",
    "FirstSchedule": "On First Schedule",
    "LastSchedule": "On Last Schedule",
    "FirstInterestOnlySchedule": "On First Interest Only Schedule",
    "LastInterestOnlySchedule": "On Last Interest Only Schedule",
    "DistributedSchedule": "Distributed Schedule"
}