{
    "1": "Andhra Pradesh",
    "2": "Arunachal Pradesh",
    "3": "Assam",
    "4": "Bihar",
    "5": "Chhattisgarh",
    "6": "Goa",
    "7": "Gujarat",
    "8": "Haryana",
    "9": "Himachal Pradesh",
    "10": "Jammu & Kashmir",
    "11": "Jharkhand",
    "12": "Karnataka",
    "13": "Kerala",
    "14": "Madhya Pradesh",
    "15": "Maharashtra",
    "16": "Manipur",
    "17": "Meghalaya",
    "18": "Mizoram",
    "19": "Nagaland",
    "20": "Odisha",
    "21": "Punjab",
    "22": "Rajasthan",
    "23": "Sikkim",
    "24": "Tamil Nadu",
    "25": "Telangana",
    "26": "Tripura",
    "27": "Uttarakhand",
    "28": "Uttar Pradesh",
    "29": "West Bengal",
    "30": "Andaman & Nicobar Islands",
    "31": "Chandigarh",
    "32": "Dadar & Nagar Haveli",
    "33": "Daman & Diu",
    "34": "Delhi",
    "35": "Lakshadweep",
    "36": "Puducherry"
}