{
    "searchname": "ApproveFunded",
    "searchFilterView": [
        {
            "StatusCode": {
                "_in": [
                    "500.70",
                    "500.80",
                    "800.80",
                    "800.90"
                ]
            }
        }
    ],
    "inTagsSearch": [],
    "notInTagsSearch": [],
    "operator": "or",
    "replaceChar": true,
    "replacementChars": {
        "_": "$"
    },
    "projections": {
        "_id": 0,
        "ApplicationNumber": 1,
        "ProductId": 1,
        "Submitted": 1,
        "LegalBusinessName": 1,
        "BusinessApplicantName": 1,
        "BusinessPhone": 1,
        "RequestedAmount": 1,
        "StatusName": 1,
        "LastProgressDate": 1,
        "SourceType": 1,
        "StatusWorkFlowId": 1,
        "ApplicantId": 1
    },
    "sorts": {
        "ApplicationNumber": -1
    },
    "exportFields": [
        "ApplicationNumber",
        "ProductId",
        "Submitted.Time.DateTime",
        "LegalBusinessName",
        "BusinessApplicantName",
        "BusinessPhone",
        "RequestedAmount",
        "StatusName",
        "LastProgressDate.Time.DateTime",
        "SourceType"
    ],
    "exportFieldNames": [
        "App No.",
        "Product ID",
        "App. created date",
        "Business Name",
        "Contact Name",
        "Contact Number",
        "Req Loan Amount",
        "Status",
        "Last updated on",
        "Lead Source"
    ]
}