{
    "AB": "AB",
    "AK": "AK",
    "AL": "AL",
    "AR": "AR",
    "AZ": "AZ",
    "BC": "BC",
    "CA": "CA",
    "CO": "CO",
    "CT": "CT",
    "DE": "DE",
    "FL": "FL",
    "GA": "GA",
    "HI": "HI",
    "IA": "IA",
    "ID": "ID",
    "IL": "IL",
    "IN": "IN",
    "KS": "KS",
    "KY": "KY",
    "LA": "LA",
    "MA": "MA",
    "MB": "MB",
    "MD": "MD",
    "ME": "ME",
    "MI": "MI",
    "MN": "MN",
    "MO": "MO",
    "MS": "MS",
    "MT": "MT",
    "NB": "NB",
    "NC": "NC",
    "ND": "ND",
    "NE": "NE",
    "NH": "NH",
    "NJ": "NJ",
    "NL": "NL",
    "NM": "NM",
    "NS": "NS",
    "NT": "NT",
    "NU": "NU",
    "NV": "NV",
    "NY": "NY",
    "OH": "OH",
    "OK": "OK",
    "ON": "ON",
    "OR": "OR",
    "PA": "PA",
    "PE": "PE",
    "QC": "QC",
    "RI": "RI",
    "SC": "SC",
    "SD": "SD",
    "SK": "SK",
    "TN": "TN",
    "TX": "TX",
    "UT": "UT",
    "VA": "VA",
    "VT": "VT",
    "WA": "WA",
    "WI": "WI",
    "WV": "WV",
    "WY": "WY",
    "YT": "YT"
}