{
    "1": "C-Corporation",
    "2": "S-Corporation",
    "3": "Limited Liability Company",
    "4": "Partnership",
    "5": "Limited Proprietorship",
    "6": "Limited Liability Proprietorship",
    "7": "Sole Proprietorship"
}