{
    "interest": "Interest",
    "principal": "Principal",
    "additionalinterest": "AdditionalInterest",
    "additionalprincipal": "AdditionalPrincipal",
    "scheduledueinterest": "ScheduleDueInterest"
   
}