{
    "searchname": "PendingDrawdownLoc",
    "searchFilterView": [
        {
            "StatusCode": {
                "_in": [
                    "200.20"
                ]
            }
        },
        {
            "ProductId": {
                "_in": [
                    "mcaloc"
                ]
            }
        }
    ],
    "replaceChar": true,
    "replacementChars": {
        "_": "$"
    },
    "inTagsSearch": [],
    "notInTagsSearch": [],
    "operator": "and",
    "projections": {
        "_id": 0,
        "LocNumber": 1,
        "DrawDownId": 1,
        "LocAmount": 1,
        "RequestedAmount": 1,
        "AmountFunded": 1,
        "NeedByDate": 1,
        "DrawDownDate": 1,
        "StatusWorkFlowId": 1,
        "ExpiryDate": 1
    },
    "sorts": {
        "DrawDownId": -1
    },
    "exportFields": [
        "LocNumber",
        "DrawDownId",
        "LocAmount",
        "RequestedAmount",
        "AmountFunded",
        "NeedByDate.Time.DateTime",
        "DrawDownDate.Time.DateTime"
    ],
    "exportFieldNames": [
        "App #",
        "Draw Id",
        "Loc Amount",
        "Requested DD",
        "Amount Funded",
        "Need By Date",
        "Draw Down Date"
    ]
}