{
    "applicationconsent": "Application Consent",
    "other": "Other",
    "bankruptcydocument": "bankruptcydocument",
    "deceaseddocument": "deceaseddocument",
    "militarydocument": "militarydocument",
    "forbearancedocument": "forbearancedocument",
    "modificationrequestdocument": "modificationrequestdocument",
    "cashflow": "Cashflow",
    "tdscertificate": "TDS Certificate",
    "accountstatement": "Account Statement"
}