{
    "_id": ObjectId("5aafa1a345ee44ba7093d03d"),
    "_t": "LendFoundry.ProductRule.Template, LendFoundry.ProductRule.Abstractions",
    "TenantId": "sigma",
    "EntityType": "application",
    "ProductId": "mca",
    "EmailTemplateName": "PlaidExceptionEmail",
    "EmailTemplateVersion": "1.0",
    "MobileTemplateName": null,
    "MobileTemplateVersion": null,
    "Description": "Plaid Exception Email Template",
    "EffectiveDate": {
        "Time": {
            "DateTime": ISODate("2017-05-15T00:00:00.000Z"),
            "Ticks": NumberLong(636304032000000000),
            "Offset": 0
        },
        "Hour": "2017-05-15-00-h",
        "Day": "2017-05-15-d",
        "Week": "2017-20-w",
        "Month": "2017-05-m",
        "Quarter": "2017-2-q",
        "Year": "2017-y"
    },
    "ExpiryDate": {
        "Time": {
            "DateTime": ISODate("2019-05-15T00:00:00.000Z"),
            "Ticks": NumberLong(636619392000000000),
            "Offset": 0
        },
        "Hour": "2019-05-15-00-h",
        "Day": "2019-05-15-d",
        "Week": "2019-20-w",
        "Month": "2019-05-m",
        "Quarter": "2019-2-q",
        "Year": "2019-y"
    },
    "IsEnable": true,
    "EventName": "PlaidException",
    "RuleDefinationName": "PlaidExceptionEmailData",
    "CreatedDate": {
        "Time": {
            "DateTime": ISODate("2017-06-23T06:14:03.148Z"),
            "Ticks": NumberLong(636337808431486089),
            "Offset": -240
        },
        "Hour": "2017-06-23-02-h",
        "Day": "2017-06-23-d",
        "Week": "2017-25-w",
        "Month": "2017-06-m",
        "Quarter": "2017-2-q",
        "Year": "2017-y"
    },
    "LastUpdatedDate": null
}