{
    "D": "Deferred",
    "P": "Single Payment Loan",
    "W": "Weekly",
    "B": "Biweekly",
    "E": "Semimonthly",
    "M": "Monthly",
    "L": "Bimonthly",
    "Q": "Quarterly",
    "T": "Tri-annually",
    "S": "Semiannually",
    "Y": "Annually"
}