{
    "events": [
        {
            "Name": "LoanOnboarded",
            "LoanNumber": "{Data.LoanNumber}",
            "ShouldUpdateAppFilterRecord": "true"
        },
        {
            "Name": "AutoPayStop",
            "LoanNumber": "{Data.LoanNumber}",
            "ShouldUpdateAppFilterRecord": false
        },
        {
            "Name": "AutoPayStarted",
            "LoanNumber": "{Data.LoanNumber}",
            "ShouldUpdateAppFilterRecord": false
        },
        {
            "Name": "AccrualStop",
            "LoanNumber": "{Data.LoanNumber}",
            "ShouldUpdateAppFilterRecord": false
        },
        {
            "Name": "AccrualStarted",
            "LoanNumber": "{Data.LoanNumber}",
            "ShouldUpdateAppFilterRecord": false
        },
        {
            "Name": "LoanScheduleCreated",
            "LoanNumber": "{Data.LoanNumber}",
            "ShouldUpdateAppFilterRecord": "true"
        },
        {
            "Name": "DPD_1_DAYS",
            "LoanNumber": "{Data.LoanNumber}",
            "ShouldUpdateAppFilterRecord": "true"
        },
        {
            "Name": "DPD_30_DAYS",
            "LoanNumber": "{Data.LoanNumber}",
            "ShouldUpdateAppFilterRecord": "true"
        },
        {
            "Name": "DPD_60_DAYS",
            "LoanNumber": "{Data.LoanNumber}",
            "ShouldUpdateAppFilterRecord": "true"
        },
        {
            "Name": "DPD_90_DAYS",
            "LoanNumber": "{Data.LoanNumber}",
            "ShouldUpdateAppFilterRecord": "true"
        },
        {
            "Name": "DPD_120_DAYS",
            "LoanNumber": "{Data.LoanNumber}",
            "ShouldUpdateAppFilterRecord": "true"
        },
        {
            "Name": "DPD_150_DAYS",
            "LoanNumber": "{Data.LoanNumber}",
            "ShouldUpdateAppFilterRecord": "true"
        },
        {
            "Name": "DPD_180_DAYS",
            "LoanNumber": "{Data.LoanNumber}",
            "ShouldUpdateAppFilterRecord": "true"
        },
        {
            "Name": "DSLA_30_DAYS",
            "LoanNumber": "{Data.LoanNumber}",
            "ShouldUpdateAppFilterRecord": "true"
        },
        {
            "Name": "DSLA_60_DAYS",
            "LoanNumber": "{Data.LoanNumber}",
            "ShouldUpdateAppFilterRecord": "true"
        },
        {
            "Name": "DSLA_90_DAYS",
            "LoanNumber": "{Data.LoanNumber}",
            "ShouldUpdateAppFilterRecord": "true"
        },
        {
            "Name": "DPDStarted",
            "LoanNumber": "{Data.LoanNumber}",
            "ShouldUpdateAppFilterRecord": "true"
        },
        {
            "Name": "DPDIsZero",
            "LoanNumber": "{Data.LoanNumber}",
            "ShouldUpdateAppFilterRecord": "true"
        },
        {
            "Name": "LoanStatusChanged",
            "LoanNumber": "{Data.EntityId}",
            "ShouldUpdateAppFilterRecord": "true"
        },
        {
            "Name": "LoanSubStatusChanged",
            "LoanNumber": "{Data.EntityId}",
            "ShouldUpdateAppFilterRecord": "true"
        },
        {
            "Name": "LoanDetailsUpdated",
            "LoanNumber": "{Data.LoanNumber}",
            "ShouldUpdateAppFilterRecord": "true"
        },
        {
            "Name": "LoanScheduleUpdated",
            "LoanNumber": "{Data.LoanNumber}",
            "ShouldUpdateAppFilterRecord": "true"
        },
        {
            "Name": "PaymentReceived",
            "LoanNumber": "{Data.LoanNumber}",
            "ShouldUpdateAppFilterRecord": "true"
        },
        {
            "Name": "InstructionCreated",
            "LoanNumber": "{Data.EntityId}",
            "ShouldUpdateAppFilterRecord": "true"
        },
        {
            "Name": "PullRequestCreated",
            "LoanNumber": "{Data.EntityId}",
            "ShouldUpdateAppFilterRecord": "true"
        },
        {
            "Name": "PaymentApplied",
            "LoanNumber": "{Data.EntityId}",
            "ShouldUpdateAppFilterRecord": "true"
        },
        {
            "Name": "FailedPayment",
            "LoanNumber": "{Data.EntityId}",
            "ShouldUpdateAppFilterRecord": "true"
        },
        {
            "Name": "NSFFailure",
            "LoanNumber": "{Data.EntityId}",
            "ShouldUpdateAppFilterRecord": "false"
        },
        {
            "Name": "NOAPayment",
            "LoanNumber": "{Data.EntityId}",
            "ShouldUpdateAppFilterRecord": "true"
        },
        {
            "Name": "ChargeOff",
            "LoanNumber": "{Data.LoanNumber}",
            "ShouldUpdateAppFilterRecord": "true"
        },
        {
            "Name": "PendingChargeOff",
            "LoanNumber": "{Data.LoanNumber}",
            "ShouldUpdateAppFilterRecord": "true"
        },
        {
            "Name": "RejectChargeOff",
            "LoanNumber": "{Data.LoanNumber}",
            "RemoveTags": [ "Pending Chargeoff"]
        },
        {
            "Name": "SellOff",
            "LoanNumber": "{Data.LoanNumber}",
            "ShouldUpdateAppFilterRecord": "true"
        },
        {
            "Name": "PaidOff",
            "LoanNumber": "{Data.LoanNumber}",
            "ShouldUpdateAppFilterRecord": "true"
        },
        {
            "Name": "LoanClosed",
            "LoanNumber": "{Data.LoanNumber}",
            "ShouldUpdateAppFilterRecord": false
        },
        {
            "Name": "FlagAdded",
            "LoanNumber": "{Data.EntityId}",
            "ShouldUpdateAppFilterRecord": true,
            "ShouldUpdateFlagCount": true,
            "Response": "{Data.ActiveFlags}"
        },
        {
            "Name": "FlagStatusChange",
            "LoanNumber": "{Data.EntityId}",
            "ShouldUpdateAppFilterRecord": true,
            "ShouldUpdateFlagCount": true,
            "Response": "{Data.ActiveFlags}"
        },
        {
            "Name": "FlagInActive",
            "LoanNumber": "{Data.EntityId}",
            "ShouldUpdateAppFilterRecord": true,
            "ShouldUpdateFlagCount": true,
            "Response": "{Data.ActiveFlags}"
        },
        {
            "Name": "PaymentMissed",
            "LoanNumber": "{Data.LoanNumber}",
            "ShouldUpdateAppFilterRecord": true
        },
        {
            "Name": "CollectionStageUpdated",
            "LoanNumber": "{Data.LoanNumber}",
            "ShouldUpdateAppFilterRecord": true,
            "ShouldUpdateCollectionRecord":true,
            "Response": "{Data.OldCollectionStage}"
        },
        {
            "Name": "AdhocPaymentAccounted",
            "LoanNumber": "{Data.LoanNumber}",
            "ShouldUpdateAppFilterRecord": false
        },
        {
            "Name": "AdHocScheduleCreated",
            "LoanNumber": "{Data.LoanNumber}",
            "ShouldUpdateAppFilterRecord": false
        },
        {
            "Name": "LoanModCreated",
            "LoanNumber": "{Data.LoanNumber}",
            "ShouldUpdateAppFilterRecord": true
        },
        {
            "Name": "LoanModUpdated",
            "LoanNumber": "{Data.LoanNumber}",
            "ShouldUpdateAppFilterRecord": true
        },
        {
            "Name": "LoanModDeleted",
            "LoanNumber": "{Data.LoanNumber}",
            "ShouldUpdateAppFilterRecord": false
        },
        {
            "Name": "LoanScheduleCreated",
            "LoanNumber": "{Data.LoanNumber}",
            "ShouldUpdateAppFilterRecord": false
        },
        {
            "Name": "LoanModActivated",
            "LoanNumber": "{Data.LoanNumber}",
            "ShouldUpdateAppFilterRecord": true,
            "ShouldUpdateCollectionRecord":true
        },
        {
            "Name": "AutoPayStop",
            "LoanNumber": "{Data.LoanNumber}",
            "ShouldUpdateAppFilterRecord": true
        }
    ],
    "MetricsEvent": [
        {
            "Name": "InstructionCreated",
            "MetricsToUpdte": [
                "NoOfPaymentsAttempted"
            ],
            "IsResetCounter": false
        },
        {
            "Name": "FailedPayment",
            "Counter": "{Data.FailCount}",
            "MetricsToUpdte": [
                "NoOfFailedPayments"
            ],
            "IsResetCounter": false
        },
        {
            "Name": "FailedPayment",
            "Counter": "{Data.SuccessiveFailCount}",
            "MetricsToUpdte": [
                "SuccessivePaymentFailure"
            ],
            "IsResetCounter": false
        },
        {
            "Name": "PaymentMissed",
            "MetricsToUpdte": [
                "NoOfMissedPayments",
                "SuccessivePaymentMissed"
            ],
            "IsResetCounter": false,
            "IsEventToBePublish": true
        },
        {
            "Name": "NSFFailure",
            "Counter": "{Data.FailCount}",
            "MetricsToUpdte": [
                "NoOfNSF"
            ],
            "IsResetCounter": false
        },
        {
            "Name": "NSFFailure",
            "Counter": "{Data.SuccessiveFailCount}",
            "MetricsToUpdte": [
                "SuccessiveNSFFailure"
            ],
            "IsResetCounter": false
        },
        {
            "Name": "PaymentReceived",
            "MetricsToUpdte": [
                "SuccessivePaymentFailure",
                "SuccessiveNSFFailure",
                "SuccessivePaymentMissed"
            ],
            "IsResetCounter": true
        },
        {
            "Name": "FlagAdded",
            "Counter": "{Data.ActiveFlags}",
            "MetricsToUpdte": [
                "NoOfActiveFlags"
            ],
            "IsResetCounter": false
        },
        {
            "Name": "FlagStatusChange",
            "Counter": "{Data.ActiveFlags}",
            "MetricsToUpdte": [
                "NoOfActiveFlags"
            ],
            "IsResetCounter": false
        },
        {
            "Name": "AutoPayStop",
            "MetricsToUpdte": [
                "NoOfAutoPayStop"
            ],
            "IsResetCounter": false
        }
    ],
    "Database":"loan-filters"
}