{
    "events": [
        {
            "Name": "AchInstructionRejected",
            "EntityId": "{Data.ReferenceNumber}",
            "Response": "{Data}",
            "EntityType": "loan",
            "MethodToExecute": "UpdateFailFunding"
        },
        {
            "Name": "AchNocReceived",
            "EntityId": "{Data.LoanReferenceNumber}",
            "Response": "{Data}",
            "EntityType": "loan",
            "MethodToExecute": "UpdateNOA"
        },
        {
            "Name": "AchFileSentComplete",
            "EntityId": "{Data.LoanReferenceNumber}",
            "Response": "{Data}",
            "EntityType": "loan",
            "MethodToExecute": "UpdateFundingSuccess"
        }
    ],
    "InstructionCreationDays": 1,
    "NextRetryDays": 3,
    "Database": "payment-processor",
    "BankRTNIFSCValidation": "^[a-zA-z]{4}0[a-zA-Z0-9]{6}$",
    "Provider": {
        "Host": "{{internal_ip}}",
        "InboxLocation": "/nacha/payment/inbox/",
        "Port": 2222,
        "Protocol": "SFTP",
        "SshHostKey": "",
        "Username": "ach",
        "Password": "lendfoundry"
    },
    "CSVColumnFormat": [
        "ReferenceNumber",
        "InternalReferenceNumber",
        "ReturnCode",
        "ExecutionDate",
        "Reason",
        "Amount"
    ],
    "FailedFileName": "FailedPayments",
    "FailedCSVCreate": true,
    "FailedLocation": "/nacha/payment/failed/"
}