{
    "05": "Account Transferred",
    "11": "0-29 DPD",
    "13": "Paid-Closed",
    "61": "Paid-Voluntary Surrender",
    "62": "Paid-Collection Account",
    "63": "Paid-Repossession",
    "64": "Paid-Charge off",
    "65": "Paid-Foreclosure",
    "71": "30-59 DPD",
    "78": "60-89 DPD",
    "80": "90-119 DPD",
    "82": "120-149 DPD",
    "83": "150-179 DPD",
    "84": "180+ DPD",
    "88": "Claim filed with government",
    "89": "Deed Received",
    "93": "Assigned to collections",
    "94": "Foreclosure Completed",
    "95": "Voluntary Surrender",
    "96": "Merchandise Repossessed",
    "97": "Unpaid balance reported as a loss",
    "DA": "Delete entire account",
    "DF": "Delete entire account due to confirmed fraud"
}