{
  "portalTitle": "Lendfoundry-6DF",
  "portalRole": "6DF",
  "configName": "6df",
  "portal": "6df",
  "countryName": "USA",
  "refreshTimeSpan": 200,
  "services": {
    "security": "http://{{external_ip}}:7018",
    "eventHub": "http://{{external_ip}}:7002",
    "configuration": "http://{{external_ip}}:7001",
    "applicationFilters": "http://{{external_ip}}:7037",
    "lmsLoanFilters": "http://{{external_ip}}:7094",
    "decisionEngine": "http://{{external_ip}}:7011",
    "workflow": "http://{{external_ip}}:6010",
    "documentService": "http://{{external_ip}}:7019",
    "statusManagement": "http://{{external_ip}}:7021",
    "applicantDetail": "http://{{external_ip}}:7035",
    "applicationDetail": "http://{{external_ip}}:7036",
    "appProcessor": "http://{{external_ip}}:7038",
    "offerengine": "http://{{external_ip}}:7039",
    "downloadDocService": "http://{{external_ip}}:7013",
    "verificationEngine": "http://{{external_ip}}:7020",
    "dataAttributes": "http://{{external_ip}}:7012",
    "perfiosService": "http://{{external_ip}}:5101",
    "emailService": "http://{{external_ip}}:7054",
    "productRule": "http://{{external_ip}}:7042",
    "activityList": "http://{{external_ip}}:7006",
    "backofficeconfiguration": "http://{{external_ip}}:7001",
    "lookupservice": "http://{{external_ip}}:7005",
    "jsonbase": "http://{{external_ip}}:5052",
    "assignment": "http://{{external_ip}}:7049",
    "alertEngine": "http://{{external_ip}}:7043",
    "partnerFilters": "http://{{external_ip}}:7050",
    "partner": "http://{{external_ip}}:7044",
    "savedFilters": "http://{{external_ip}}:7052",
    "webhookNotifier": "http://{{external_ip}}:7056",
    "metricService": "http://{{external_ip}}:7065",
    "assetService": "http://{{external_ip}}:7102",
    "fundingService": "http://{{external_ip}}:7041",
    "emailTemplates": "http://{{external_ip}}:7014",
    "campaignService": "http://{{external_ip}}:7067",
    "cashflowService": "http://{{external_ip}}:7071",
    "multiProducts": "http://{{external_ip}}:7053",
    "drawdownProcessor": "http://{{external_ip}}:7090",
    "pollingVoting": "http://{{external_ip}}:7091",
    "lmsService": "http://{{external_ip}}:7092",
    "accountingService": "http://{{external_ip}}:7093",
    "paymentProcessor": "http://{{external_ip}}:7095",
    "callService": "http://{{external_ip}}:7097",
    "lmsTestTool": "http://{{external_ip}}:7096",
    "entityDocument": "http://{{external_ip}}:7100",
    "bureauReport": "http://{{external_ip}}:7062",
    "flagService": "http://{{external_ip}}:7061",
    "ibvService": "http://{{external_ip}}:7075",
    "ibvCashFlowService": "http://{{external_ip}}:7077",
    "documentGenerator": "http://{{external_ip}}:7015"
  },
  "private": {
    "layout": "layouts/private.html",
    "app": "product",
    "url": "#/product"
  },
  "public": {
    "layout": "layouts/public.html",
    "url": "#/securityLogin",
    "app": "login"
  },
  "ignoreLoaderUrls": [
    "browser-sync",
    "is-authorized"
  ],
  "images-config": {
    "nosearchlogo": {
      "img": "lendfoundry_logo300x62.png",
      "alt": "6DF"
    },
    "loginlogo": {
      "img": "lendfoundry_logo300x62.png",
      "alt": "6DF"
    }
  },
  "securityAndAuthentication": {
    "portal": "6df",
    "heartBeatIntervalInMilliSeconds": "300000"
  },
  "LookupNames": [
    "propertyType",
    "industry",
    "purposeOfLoan",
    "feeTypes",
    "requeststatus",
    "calldisposition",
    "relations",
    "businessTypes",
    "emailTypes",
    "phoneTypes",
    "addressTypes",
    "requestStatus",
    "payment-purpose",
    "facts",
    "situation",
    "evaluation",
    "applicationDocument-category",
    "payment-element",
    "product-type",
    "product-category",
    "product-family",
    "frequency-type",
    "worflow-type",
    "feetypes",
    "entityTypes"
  ],
  "apps": {
    "navheader": {
      "src": "header/no-search.html",
      "configuration": {},
      "public": false
    },
    "search-inline": {
      "src": "search/inline.html",
      "configuration": {}
    },
    "navigation": {
      "src": "navigation/index.html",
      "configuration": {
        "nodes": [
          {
            "title": "Product Configuration",
            "icon": "fa fa-user",
            "nodes": [
              {
                "title": "Products",
                "url": "#/product",
                "tooltip": "Add/Edit Products"
              }
            ],
            "tooltip": "Configure Multi Products"
          },
          {
            "title": "Rules",
            "icon": "fa fa-user",
            "nodes": [
              {
                "title": "Pricing Rules",
                "url": "#/scorecard/rules:pricing",
                "tooltip": "Manage Pricing"
              },
              {
                "title": "Pricing Strategy",
                "url": "#/pricingstrategy/rules:pricingstrategy",
                "tooltip": "Manage Pricing Strategy"
              },
              {
                "title": "Verification Rules",
                "url": "#/otherrules/rules:verification",
                "tooltip": "Verification Rules"
              },
              {
                "title": "Checklist Rules",
                "url": "#/otherrules/rules:checklist",
                "tooltip": "Checklist"
              },
              {
                "title": "Template Rules",
                "url": "#/otherrules/rules:template",
                "tooltip": "Template"
              },
              {
                "title": "Data Extraction Rules",
                "url": "#/otherrules/rules:dataextraction",
                "tooltip": "DataExtraction"
              },
              {
                "title": "Calculation Rules",
                "url": "#/otherrules/rules:calculation",
                "tooltip": "Calculation Rules"
              },
              {
                "title": "Applicable Rules",
                "url": "#/otherrules/rules:applicable",
                "tooltip": "Applicable Rules"
              }
            ],
            "tooltip": "All Users - The standard chunk of Lorem Ipsum used since the 1500s"
          },
          {
            "title": "Configure Email",
            "icon": "fa fa-user",
            "nodes": [
              {
                "title": "Event Email",
                "url": "#/manageevent/filter:event",
                "tooltip": "Event Email"
              },
              {
                "title": "Templates",
                "url": "#/managetemplate/filter:template",
                "tooltip": "Templates"
              },
              {
                "title": "Email Campaign",
                "url": "#/managecampaign/filter:campaign",
                "tooltip": "Email Campaign"
              }
            ],
            "tooltip": "Configure Templates - The standard chunk of Lorem Ipsum used since the 1500s"
          },
          {
            "title": "Investors",
            "icon": "fa fa-handshake-o",
            "nodes": [
              {
                "title": "Pending Requests",
                "url": "#/app-view/entity:partner/filter:PendingPartnerRequests",
                "tooltip": "This will list out all brokers requested to be part of your ogranization with feature of approving or declining."
              },
              {
                "title": "Approved Brokers",
                "url": "#/app-view/entity:partner/filter:ApprovedBrokers",
                "tooltip": "This will list out all approved brokers associated with your organization."
              },
              {
                "title": "Rejected Brokers",
                "url": "#/app-view/entity:partner/filter:RejectedBrokers",
                "tooltip": "This will list out all rejected brokers."
              }
            ],
            "tooltip": "This will list all your Investors with your organization."
          }
        ]
      }
    },
    "securityLogin": {
      "layout": "layouts/public.html",
      "src": "security/login.html",
      "public": true
    },
    "securityRequest": {
      "layout": "layouts/public.html",
      "src": "security/request.html",
      "public": true
    },
    "securityReset": {
      "layout": "layouts/public.html",
      "src": "security/reset.html",
      "public": true
    },
    "dashboard": {
      "layout": "layouts/private.html",
      "src": "dashboard/index.html",
      "public": false
    },
    "app-details": {
      "layout": "layouts/private.html",
      "src": "app-details/index.html",
      "public": false
    },
    "config": {
      "layout": "layouts/private.html",
      "src": "config/config.html",
      "public": false
    },
    "rules": {
      "layout": "layouts/private.html",
      "src": "rules/other-rules.html",
      "public": false
    },
    "scorecard": {
      "layout": "layouts/private.html",
      "src": "rules/score-card.html",
      "public": false
    },
    "manageevent": {
      "layout": "layouts/private.html",
      "src": "emailtemplates/template-list.html",
      "public": false
    },
    "product": {
      "layout": "layouts/private.html",
      "src": "product/index.html",
      "public": false
    },
    "product-details": {
      "layout": "layouts/private.html",
      "src": "product/product-details.html",
      "public": false
    },
    "managetemplate": {
      "layout": "layouts/private.html",
      "src": "email/manage-template.html",
      "public": false
    },
    "managecampaign": {
      "layout": "layouts/private.html",
      "src": "email/manage-campaign.html",
      "public": false
    },
    "otherrules": {
      "layout": "layouts/private.html",
      "src": "rules/other-rules.html",
      "public": false
    },
    "pricingstrategy": {
      "layout": "layouts/private.html",
      "src": "rules/pricing-strategy.html",
      "public": false
    },
    "scorecard-details": {
      "layout": "layouts/private.html",
      "src": "rules/scorecardDetails.html",
      "public": false
    },
    "app-admin": {
      "layout": "layouts/private.html",
      "src": "app-admin/index.html",
      "public": false
    },
    "create-user": {
      "layout": "layouts/private.html",
      "src": "app-admin/create-user.html",
      "public": false
    },
    "update-user": {
      "layout": "layouts/private.html",
      "src": "app-admin/update-user.html",
      "public": false
    },
    "search": {
      "layout": "layouts/private.html",
      "src": "search/index.html",
      "public": false
    },
    "app-view": {
      "layout": "layouts/private.html",
      "src": "app-view/index.html",
      "public": false
    },
    "partner-details": {
      "layout": "layouts/private.html",
      "src": "partners/partnerDetails.html",
      "public": false
    }
  },
  "roles-and-permissions": {
    "PartnerPersonalDetailsTab": {
      "notIn": [],
      "assigned": []
    },
    "PartnerUserTab": {
      "notIn": [],
      "assigned": []
    },
    "EditBrokerAction": {
      "notIn": [],
      "assigned": []
    },
    "ApproveAndRejectPartnerAction": {
      "notIn": [],
      "assigned": []
    },
    "AddUsersAction": {
      "notIn": [],
      "assigned": []
    },
    "InvestorsFilters": {
      "notIn": [],
      "assigned": []
    },
    "PendingRequestsFilters": {
      "notIn": [],
      "assigned": []
    },
    "ApprovedBrokersFilters": {
      "notIn": [],
      "assigned": []
    },
    "RejectedBrokersFilters": {
      "notIn": [],
      "assigned": []
    },
    "scorecardTab": {
      "notIn": [],
      "assigned": []
    },
    "pricingStrategyTab": {
      "notIn": [],
      "assigned": []
    },
    "pricingStrategyStepTab": {
      "notIn": [],
      "assigned": []
    },
    "scorecardVariableTab": {
      "notIn": [],
      "assigned": []
    },
    "EligibilityTab": {
      "notIn": [],
      "assigned": []
    },
    "SegmentTab": {
      "notIn": [],
      "assigned": []
    },
    "lookupTab": {
      "notIn": [],
      "assigned": []
    },
    "ConfigManagementFilters": {
      "notIn": [],
      "assigned": []
    },
    "AlloyFilters": {
      "notIn": [],
      "assigned": []
    },
    "BackofficePortalFilters": {
      "notIn": [],
      "assigned": []
    },
    "TenantFilters": {
      "notIn": [],
      "assigned": []
    },
    "RulesFilters": {
      "notIn": [],
      "assigned": []
    },
    "PricingRulesFilters": {
      "notIn": [],
      "assigned": []
    },
    "PricingStrategyFilters": {
      "notIn": [],
      "assigned": []
    },
    "VerificationRulesFilters": {
      "notIn": [],
      "assigned": []
    },
    "ChecklistRulesFilters": {
      "notIn": [],
      "assigned": []
    },
    "TemplateRulesFilters": {
      "notIn": [],
      "assigned": []
    },
    "DataExtractionRulesFilters": {
      "notIn": [],
      "assigned": []
    },
    "CalculationRulesFilters": {
      "notIn": [],
      "assigned": []
    },
    "ApplicableRulesFilters": {
      "notIn": [],
      "assigned": []
    },
    "ConfigureEmailFilters": {
      "notIn": [],
      "assigned": []
    },
    "EventEmailFilters": {
      "notIn": [],
      "assigned": []
    },
    "TemplatesFilters": {
      "notIn": [],
      "assigned": []
    },
    "EmailCampaignFilters": {
      "notIn": [],
      "assigned": []
    },
    "AddEditScoreCardBtn": {
      "notIn": [
        "Pricing Analyst"
      ],
      "assigned": []
    },
    "ViewScoreCardBtn": {
      "notIn": [
        "Pricing Administrator"
      ],
      "assigned": []
    },
    "AddEditFeeBtn": {
      "notIn": [
        "Pricing Analyst"
      ],
      "assigned": []
    },
    "ViewFeeBtn": {
      "notIn": [
        "Pricing Administrator"
      ],
      "assigned": []
    },
    "AddEditHierarchyBtn": {
      "notIn": [
        "Pricing Analyst"
      ],
      "assigned": []
    },
    "AddEditScoreCardVariableBtn": {
      "notIn": [
        "Pricing Analyst"
      ],
      "assigned": []
    },
    "ViewScoreCardVariableBtn": {
      "notIn": [
        "Pricing Administrator"
      ],
      "assigned": []
    },
    "AddEditRuleBtn": {
      "notIn": [
        "Pricing Analyst"
      ],
      "assigned": []
    },
    "ViewRuleBtn": {
      "notIn": [
        "Pricing Administrator"
      ],
      "assigned": []
    },
    "AddEditRuleDefinitionBtn": {
      "notIn": [
        "Pricing Analyst"
      ],
      "assigned": []
    },
    "AddEditHtmlBtn": {
      "notIn": [
        "Pricing Analyst"
      ],
      "assigned": []
    },
    "ViewHtmlBtn": {
      "notIn": [
        "Pricing Administrator"
      ],
      "assigned": []
    },
    "AddEditMobileTxtBtn": {
      "notIn": [
        "Pricing Analyst"
      ],
      "assigned": []
    },
    "ViewMobileTxtBtn": {
      "notIn": [
        "Pricing Administrator"
      ],
      "assigned": []
    },
    "ViewRuleDefinitionBtn": {
      "notIn": [
        "Pricing Administrator"
      ],
      "assigned": []
    },
    "AddEditSegmentBtn": {
      "notIn": [
        "Pricing Analyst"
      ],
      "assigned": []
    },
    "ViewSegmentBtn": {
      "notIn": [
        "Pricing Administrator"
      ],
      "assigned": []
    },
    "AddEditSetDataBtn": {
      "notIn": [
        "Pricing Analyst"
      ],
      "assigned": []
    },
    "ViewSetDataBtn": {
      "notIn": [],
      "assigned": []
    },
    "AddEditLookupBtn": {
      "notIn": [
        "Pricing Analyst"
      ],
      "assigned": []
    },
    "ViewLookupBtn": {
      "notIn": [
        "Pricing Administrator"
      ],
      "assigned": []
    },
    "AddEditConfigBtn": {
      "notIn": [
        "Pricing Analyst"
      ],
      "assigned": []
    },
    "AddEditPricingStrategyBtn": {
      "notIn": [
        "Pricing Analyst"
      ],
      "assigned": []
    },
    "ViewPricingStrategyBtn": {
      "notIn": [
        "Pricing Analyst"
      ],
      "assigned": []
    },
    "AddEditStrategyStepBtn": {
      "notIn": [
        "Pricing Analyst"
      ],
      "assigned": []
    },
    "ViewStrategyStepBtn": {
      "notIn": [
        "Pricing Analyst"
      ],
      "assigned": []
    },
    "ViewValidateBtn": {
      "notIn": [
        "Pricing Analyst"
      ],
      "assigned": []
    },
    "AddEditEmailTemplateBtn": {
      "notIn": [
        "Pricing Analyst"
      ],
      "assigned": []
    },
    "ViewEmailTemplateBtn": {
      "notIn": [
        "Pricing Administrator"
      ],
      "assigned": []
    },
    "AddEditCampaignBtn": {
      "notIn": [
        "Pricing Analyst"
      ],
      "assigned": []
    },
    "ViewCampaignBtn": {
      "notIn": [
        "Pricing Administrator"
      ],
      "assigned": []
    },
    "AddEditProductBtn": {
      "notIn": [
        "Pricing Analyst"
      ],
      "assigned": []
    },
    "DeleteProductBtn": {
      "notIn": [
        "Pricing Analyst"
      ],
      "assigned": []
    },
    "ViewProductBtn": {
      "notIn": [
        "Pricing Administrator"
      ],
      "assigned": []
    },
    "DetialsProductBtn": {
      "notIn": [],
      "assigned": []
    },
    "ProductConfigurationFilters": {
      "notIn": [],
      "assigned": []
    },
    "ProductsFilters": {
      "notIn": [],
      "assigned": []
    },
    "DocumentTab": {
      "notIn": [],
      "assigned": []
    },
    "ParametersTab": {
      "notIn": [],
      "assigned": []
    },
    "WorkflowTab": {
      "notIn": [],
      "assigned": []
    },
    "FeeTab": {
      "notIn": [],
      "assigned": []
    },
    "HierarchyTab": {
      "notIn": [],
      "assigned": []
    },
    "AddEditDocumentBtn": {
      "notIn": [
        "Pricing Analyst"
      ],
      "assigned": []
    },
    "ViewDocumentBtn": {
      "notIn": [
        "Pricing Administrator"
      ],
      "assigned": []
    },
    "AddEditWorkFlowBtn": {
      "notIn": [],
      "assigned": []
    },
    "ViewWorkFlowBtn": {
      "notIn": [
        "Pricing Administrator"
      ],
      "assigned": []
    },
    "AddEditParameterBtn": {
      "notIn": [],
      "assigned": []
    },
    "ViewParameterBtn": {
      "notIn": [
        "Pricing Administrator"
      ],
      "assigned": []
    }
  },
  "HelpText": {
    "PartnerRequestedStatus": {
      "title": "Partner Requested",
      "data": "<h1>Lorem ipsum dolor sit amet consectetuer adipiscing elit</h1><ul><li>Lorem ipsum dolor sit amet consectetuer.</li><li>Aenean commodo ligula eget dolor.</li><li>Aenean massa cum sociis natoque penatibus.</li></ul>"
    },
    "PartnerActivateStatus": {
      "title": "Partner Activate",
      "data": "<h1>Lorem ipsum dolor sit amet consectetuer adipiscing elit</h1><ul><li>Lorem ipsum dolor sit amet consectetuer.</li><li>Aenean commodo ligula eget dolor.</li><li>Aenean massa cum sociis natoque penatibus.</li></ul>"
    },
    "PartnerDeactivateStatus": {
      "title": "Partner Deactivate",
      "data": "<h1>Lorem ipsum dolor sit amet consectetuer adipiscing elit</h1><ul><li>Lorem ipsum dolor sit amet consectetuer.</li><li>Aenean commodo ligula eget dolor.</li><li>Aenean massa cum sociis natoque penatibus.</li></ul>"
    },
    "EditPartnerAction": {
      "title": "Edit Partner",
      "data": "<h1>Lorem ipsum dolor sit amet consectetuer adipiscing elit</h1><ul><li>Lorem ipsum dolor sit amet consectetuer.</li><li>Aenean commodo ligula eget dolor.</li><li>Aenean massa cum sociis natoque penatibus.</li></ul>"
    },
    "Approve/RejectPartnerAction": {
      "title": "Approve/Reject Partner",
      "data": "<h1>Lorem ipsum dolor sit amet consectetuer adipiscing elit</h1><ul><li>Lorem ipsum dolor sit amet consectetuer.</li><li>Aenean commodo ligula eget dolor.</li><li>Aenean massa cum sociis natoque penatibus.</li></ul>"
    },
    "PartnerPersonalDetailsTab": {
      "data": "Lorem ipsum dolor sit amet, consectetur adipiscing elit. Ut vitae ex hendrerit, faucibus dolor in"
    },
    "PartnerUserTab": {
      "data": "Lorem ipsum dolor sit amet, consectetur adipiscing elit. Ut vitae ex hendrerit, faucibus dolor in"
    },
    "scorecardVariableTab": {
      "data": "Setup score card variables"
    },
    "scorecardTab": {
      "data": "Score Card"
    },
    "EligibilityTab": {
      "data": "Eligibility Rules"
    },
    "SegmentTab": {
      "data": "Segment Rules"
    },
    "lookupTab": {
      "data": "lookup Rules"
    },
    "pricingStrategyTab": {
      "data": "Manage Pricing Strategy"
    },
    "pricingStrategyStepTab": {
      "data": "Pricing Strategy Steps"
    }
  },
  "partner-actions": {
    "events": {
      "EditPartner": {
        "PartnerDetailsPageRefresh": true
      },
      "ApproveAndRejectBroker": {
        "PartnerDetailsPageRefresh": true
      },
      "AddUsers": {
        "PartnerDetailsPageRefresh": true
      }
    },
    "PendingPartnerRequests": {
      "EditPartner": true,
      "ApproveAndRejectBroker": true
    },
    "ApprovedBrokers": {
      "EditPartner": true,
      "AddUsers": true
    },
    "RejectedBrokers": {}
  },
  "filters": {
    "PendingPartnerRequests": {
      "columns": [
        {
          "data": "BusinessName",
          "title": "Partner Name",
          "className": "datatabletd",
          "tooltip": "Partner Name"
        },
        {
          "data": "Line1",
          "title": "Address",
          "isFunction": true,
          "render": "function(data,type,full,meta) { if (!data) {  return ''; } return full.Line1+','+full.City+','+full.State+','+full.ZipCode;}",
          "tooltip": "Partner Address"
        },
        {
          "data": "PhoneNumber",
          "title": "Phone Number",
          "tooltip": "Phone Number"
        },
        {
          "data": "StatusChangeDate.Time.DateTime",
          "title": "Date Requested",
          "className": "datatabletd",
          "isFunction": true,
          "render": "function(data,type,full,meta) { if (!data) {  return ''; } return moment(data).format('MM/DD/YYYY');}",
          "tooltip": "Date Requested"
        },
        {
          "data": null,
          "isFunction": true,
          "render": "function(data,type,full,meta) { return \"<button on-click='openPartnerView' class='btn btn-primary btn-xs' data-ref$='{{item.loanReferenceNumber}}' data-index$='{{index}}'>Details</button>\"}"
        }
      ],
      "order": [
        [
          3,
          "desc"
        ]
      ],
      "columnDefs": [
        {
          "width": "15%",
          "targets": 0
        },
        {
          "width": "25%",
          "targets": 1
        },
        {
          "width": "15%",
          "targets": 2
        },
        {
          "width": "15%",
          "targets": 3
        },
        {
          "width": "10%",
          "targets": 4,
          "searchable": false
        }
      ]
    },
    "ApprovedBrokers": {
      "columns": [
        {
          "data": "BusinessName",
          "title": "Partner Name",
          "className": "datatabletd",
          "tooltip": "Partner Name"
        },
        {
          "data": "Line1",
          "title": "Address",
          "isFunction": true,
          "render": "function(data,type,full,meta) { if (!data) {  return ''; } return full.Line1+','+full.City+','+full.State+','+full.ZipCode;}",
          "tooltip": "Partner Address"
        },
        {
          "data": "PhoneNumber",
          "title": "Phone Number",
          "tooltip": "Phone Number"
        },
        {
          "data": "StatusChangeDate.Time.DateTime",
          "title": "Date Approved",
          "className": "datatabletd",
          "isFunction": true,
          "render": "function(data,type,full,meta) { if (!data) {  return ''; } return moment(data).format('MM/DD/YYYY');}",
          "tooltip": "Date Approved"
        },
        {
          "data": null,
          "isFunction": true,
          "render": "function(data,type,full,meta) { return \"<button on-click='openPartnerView' class='btn btn-primary btn-xs' data-ref$='{{item.loanReferenceNumber}}' data-index$='{{index}}'>Details</button>\"}"
        }
      ],
      "order": [
        [
          3,
          "desc"
        ]
      ],
      "columnDefs": [
        {
          "width": "15%",
          "targets": 0
        },
        {
          "width": "25%",
          "targets": 1
        },
        {
          "width": "15%",
          "targets": 2
        },
        {
          "width": "15%",
          "targets": 3
        },
        {
          "width": "10%",
          "targets": 4,
          "searchable": false
        }
      ]
    },
    "RejectedBrokers": {
      "columns": [
        {
          "data": "BusinessName",
          "title": "Partner Name",
          "className": "datatabletd",
          "tooltip": "Partner Name"
        },
        {
          "data": "Line1",
          "title": "Address",
          "isFunction": true,
          "render": "function(data,type,full,meta) { if (!data) {  return ''; } return full.Line1+','+full.City+','+full.State+','+full.ZipCode;}",
          "tooltip": "Partner Address"
        },
        {
          "data": "PhoneNumber",
          "title": "Phone Number",
          "tooltip": "Phone Number"
        },
        {
          "data": "StatusChangeDate.Time.DateTime",
          "title": "Date Rejected",
          "className": "datatabletd",
          "isFunction": true,
          "render": "function(data,type,full,meta) { if (!data) {  return ''; } return moment(data).format('MM/DD/YYYY');}",
          "tooltip": "Date Rejected"
        },
        {
          "data": null,
          "isFunction": true,
          "render": "function(data,type,full,meta) { return \"<button on-click='openPartnerView' class='btn btn-primary btn-xs' data-ref$='{{item.loanReferenceNumber}}' data-index$='{{index}}'>Details</button>\"}"
        }
      ],
      "order": [
        [
          2,
          "desc"
        ]
      ],
      "columnDefs": [
        {
          "width": "15%",
          "targets": 0
        },
        {
          "width": "25%",
          "targets": 1
        },
        {
          "width": "15%",
          "targets": 2
        },
        {
          "width": "15%",
          "targets": 3
        },
        {
          "width": "10%",
          "targets": 4,
          "searchable": false
        }
      ]
    },
    "pricing": {
      "columns": [
        {
          "data": "productId",
          "title": "Product",
          "className": "datatabletd",
          "tooltip": "Product"
        },
        {
          "data": "scoreCardName",
          "title": "Score Card Name",
          "className": "datatabletd",
          "tooltip": "Score Card Name"
        },
        {
          "data": "description",
          "title": "Description",
          "className": "datatabletd",
          "tooltip": "Score Card Description"
        },
        {
          "data": "effectiveDate.time",
          "title": "Effective Date",
          "isFunction": true,
          "render": "function(data,type,full,meta) { if (!data) {  return ''; } return moment(data).format('MM/DD/YYYY');}",
          "tooltip": "Effective Date"
        },
        {
          "data": "expiryDate.time",
          "title": "Expiry Date",
          "isFunction": true,
          "render": "function(data,type,full,meta) { if (!data) {  return ''; } return moment(data).format('MM/DD/YYYY');}",
          "tooltip": "Expiry Date"
        },
        {
          "data": "isValidated",
          "title": "Valid?",
          "isFunction": true,
          "render": "function(data,type,full,meta) { if (data) {  return \"<i class='fa fa-check' aria-hidden='true'></i>\"; } return \"<i class='fa fa-times' aria-hidden='true'></i>\";}",
          "className": "datatabletd",
          "tooltip": "Rule Validated"
        },
        {
          "data": null,
          "isFunction": true,
          "render": "function(data, type, full, meta) { var RuleEditor = ''; var VRuleEditor = ''; var VRuledeginition = ''; var hasViewScoreCard = ''; var hasViewScoreCardVariable = ''; var hasValidateRule = ''; if (data.ruleDefinitionId != null && ((self.hasRole('ViewRuleBtn') == true) || (self.hasRole('AddEditRuleBtn') == true))) { RuleEditor = \"<li><a on-click='editRule' href='javascript:'>Edit Rule</a></li>\" }; if (self.hasRole('ViewScoreCardBtn') == true || self.hasRole('AddEditScoreCardBtn') == true) { hasViewScoreCard = \"<li><a on-click='editScoreView' href='javascript:'>Edit Score Card</a></li>\" }; if (self.hasRole('ViewScoreCardVariableBtn') == true || self.hasRole('AddEditScoreCardVariableBtn') == true) { hasViewScoreCardVariable = \"<li><a on-click='openScoreView' href='javascript:'>Setup Score Card Variable</a></li>\" }; if (self.hasRole('ViewValidateBtn') == true) { hasValidateRule = \"<li><a on-click='ValidateScoreCard' href='javascript:'>Validate Score Card</a></li>\" }; if (self.hasRole('ViewScoreCardBtn') == true || self.hasRole('AddEditScoreCardBtn') == true) { VRuledeginition = \"<li><a on-click='AddEditValidationRule' href='javascript:'>Setup Validation Rule</a></li>\" }; if (data.validationRuleId != null && ((self.hasRole('ViewRuleBtn') == true) || (self.hasRole('AddEditRuleBtn') == true))) { VRuleEditor = \"<li><a on-click='editValidationRule' href='javascript:'>Edit Validation Rule Definition</a></li>\" }; return \"<ul class='nav navbar-right' style='font-size:15px; margin: 0 0 0 0;'><li class='dropdown'><a href='javascript:' class='dropdown-toggle' data-toggle='dropdown' role='button' aria-expanded='false' style='padding: 3px 0px 0 5px;'><i class='fa fa-ellipsis-h' aria-hidden='true'></i></a><ul class='dropdown-menu'>\" + hasViewScoreCardVariable + hasViewScoreCard + RuleEditor + hasValidateRule + VRuledeginition + VRuleEditor + \"</ul></li></ul>\" }"
        }
      ],
      "order": [
        [
          0,
          "desc"
        ]
      ],
      "columnDefs": [
        {
          "width": "15%",
          "targets": 0
        },
        {
          "width": "20%",
          "targets": 1
        },
        {
          "width": "30%",
          "targets": 2
        },
        {
          "width": "10%",
          "targets": 3
        },
        {
          "width": "10%",
          "targets": 4
        },
        {
          "width": "10%",
          "targets": 5
        },
        {
          "width": "5%",
          "targets": 6,
          "sortable": false
        }
      ]
    },
    "pricingstrategy": {
      "columns": [
        {
          "data": "productId",
          "title": "Product",
          "className": "datatabletd",
          "tooltip": "Product"
        },
        {
          "data": "name",
          "title": "Name",
          "className": "datatabletd",
          "tooltip": "Pricing Strategy Name"
        },
        {
          "data": "description",
          "title": "Description",
          "className": "datatabletd",
          "tooltip": "Pricing Strategy Description"
        },
        {
          "data": "version",
          "title": "Version",
          "className": "datatabletd",
          "tooltip": "Pricing Strategy Version"
        },
        {
          "data": "effectiveDate.time",
          "title": "Effective Date",
          "isFunction": true,
          "render": "function(data,type,full,meta) { if (!data) {  return ''; } return moment(data).format('MM/DD/YYYY');}",
          "tooltip": "Created On"
        },
        {
          "data": "expiryDate.time",
          "title": "Expiry Date",
          "isFunction": true,
          "render": "function(data,type,full,meta) { if (!data) {  return ''; } return moment(data).format('MM/DD/YYYY');}",
          "tooltip": "Updated On"
        },
        {
          "data": null,
          "isFunction": true,
          "render": "function(data,type,full,meta) { var editStrategyObj=''; var editStrategyStep=''; if(self.hasRole('ViewPricingStrategyBtn') == true || self.hasRole('AddEditPricingStrategyBtn') == true) { editStrategyObj=\"<li><a on-click='editStrategy' href='javascript:'>Edit</a></li>\" }; if(self.hasRole('ViewStrategyStepBtn') == true || self.hasRole('AddEditStrategyStepBtn') == true) { editStrategyStep=\"<li><a on-click='setupStrategy' href='javascript:'>Setup</a></li>\" }; return \"<ul class='nav navbar-right' style='font-size:15px; margin: 0 0 0 0;'><li class='dropdown'><a href='javascript:' class='dropdown-toggle' data-toggle='dropdown' role='button' aria-expanded='false' style='padding: 3px 0px 0 5px;'><i class='fa fa-ellipsis-h' aria-hidden='true'></i></a><ul class='dropdown-menu'>\" + editStrategyStep  + editStrategyObj + \"</ul></li></ul>\"}"
        }
      ],
      "order": [
        [
          0,
          "desc"
        ]
      ],
      "columnDefs": [
        {
          "width": "15%",
          "targets": 0
        },
        {
          "width": "20%",
          "targets": 1
        },
        {
          "width": "25%",
          "targets": 2
        },
        {
          "width": "10%",
          "targets": 3
        },
        {
          "width": "10%",
          "targets": 4
        },
        {
          "width": "10%",
          "targets": 5
        },
        {
          "width": "5%",
          "targets": 6,
          "sortable": false
        }
      ]
    },
    "verification": {
      "columns": [
        {
          "data": "productId",
          "title": "Product",
          "className": "datatabletd",
          "tooltip": "Product"
        },
        {
          "data": "ruleName",
          "title": "Rule Name",
          "className": "datatabletd",
          "tooltip": "Rule Name"
        },
        {
          "data": "description",
          "title": "Description",
          "className": "datatabletd",
          "tooltip": "Score Card Description"
        },
        {
          "data": "dataAttributeStoreName",
          "title": "Data Attribute Store Name",
          "className": "datatabletd",
          "tooltip": "Data Attribute Store Name"
        },
        {
          "data": "effectiveDate.time",
          "title": "Effective Date",
          "isFunction": true,
          "render": "function(data,type,full,meta) { if (!data) {  return ''; } return moment(data).format('MM/DD/YYYY');}",
          "tooltip": "Effective Date"
        },
        {
          "data": "expiryDate.time",
          "title": "Expiry Date",
          "isFunction": true,
          "render": "function(data,type,full,meta) { if (!data) {  return ''; } return moment(data).format('MM/DD/YYYY');}",
          "tooltip": "Expiry Date"
        },
        {
          "data": null,
          "isFunction": true,
          "render": "function(data,type,full,meta) { var RuleEditor=''; var hasViewScoreCard=''; if(data.id != null && ((self.hasRole('ViewRuleBtn') == true) || (self.hasRole('AddEditRuleBtn') == true))) { RuleEditor=\"<li><a on-click='editRule' href='javascript:'>Edit Rule</a></li>\" }; if(self.hasRole('ViewRuleDefinitionBtn') == true || self.hasRole('AddEditRuleDefinitionBtn') == true) { hasViewScoreCard=\"<li><a on-click='editScoreView' href='javascript:'>Edit</a></li>\" }; return \"<ul class='nav navbar-right' style='font-size:15px; margin: 0 0 0 0;'><li class='dropdown'><a href='javascript:' class='dropdown-toggle' data-toggle='dropdown' role='button' aria-expanded='false' style='padding: 3px 0px 0 5px;'><i class='fa fa-ellipsis-h' aria-hidden='true'></i></a><ul class='dropdown-menu'>\" + hasViewScoreCard  + RuleEditor + \"</ul></li></ul>\" }"
        }
      ],
      "order": [
        [
          0,
          "desc"
        ]
      ],
      "columnDefs": [
        {
          "width": "10%",
          "targets": 0
        },
        {
          "width": "15%",
          "targets": 1
        },
        {
          "width": "20%",
          "targets": 2
        },
        {
          "width": "20%",
          "targets": 3
        },
        {
          "width": "10%",
          "targets": 4
        },
        {
          "width": "10%",
          "targets": 5
        },
        {
          "width": "5%",
          "targets": 6,
          "sortable": false
        }
      ]
    },
    "checklist": {
      "columns": [
        {
          "data": "productId",
          "title": "Product",
          "className": "datatabletd",
          "tooltip": "Product"
        },
        {
          "data": "ruleName",
          "title": "Rule Name",
          "className": "datatabletd",
          "tooltip": "Rule Name"
        },
        {
          "data": "description",
          "title": "Description",
          "className": "datatabletd",
          "tooltip": "Score Card Description"
        },
        {
          "data": "dataAttributeStoreName",
          "title": "Data Attribute Store Name",
          "className": "datatabletd",
          "tooltip": "Data Attribute Store Name"
        },
        {
          "data": "effectiveDate.time",
          "title": "Effective Date",
          "isFunction": true,
          "render": "function(data,type,full,meta) { if (!data) {  return ''; } return moment(data).format('MM/DD/YYYY');}",
          "tooltip": "Effective Date"
        },
        {
          "data": "expiryDate.time",
          "title": "Expiry Date",
          "isFunction": true,
          "render": "function(data,type,full,meta) { if (!data) {  return ''; } return moment(data).format('MM/DD/YYYY');}",
          "tooltip": "Expiry Date"
        },
        {
          "data": null,
          "isFunction": true,
          "render": "function(data,type,full,meta) { var RuleEditor=''; var hasViewScoreCard=''; if(data.id != null && ((self.hasRole('ViewRuleBtn') == true) || (self.hasRole('AddEditRuleBtn') == true))) { RuleEditor=\"<li><a on-click='editRule' href='javascript:'>Edit Rule</a></li>\" }; if(self.hasRole('ViewRuleDefinitionBtn') == true || self.hasRole('AddEditRuleDefinitionBtn') == true) { hasViewScoreCard=\"<li><a on-click='editScoreView' href='javascript:'>Edit</a></li>\" }; return \"<ul class='nav navbar-right' style='font-size:15px; margin: 0 0 0 0;'><li class='dropdown'><a href='javascript:' class='dropdown-toggle' data-toggle='dropdown' role='button' aria-expanded='false' style='padding: 3px 0px 0 5px;'><i class='fa fa-ellipsis-h' aria-hidden='true'></i></a><ul class='dropdown-menu'>\" + hasViewScoreCard  + RuleEditor + \"</ul></li></ul>\" }"
        }
      ],
      "order": [
        [
          0,
          "desc"
        ]
      ],
      "columnDefs": [
        {
          "width": "10%",
          "targets": 0
        },
        {
          "width": "15%",
          "targets": 1
        },
        {
          "width": "20%",
          "targets": 2
        },
        {
          "width": "20%",
          "targets": 3
        },
        {
          "width": "10%",
          "targets": 4
        },
        {
          "width": "10%",
          "targets": 5
        },
        {
          "width": "5%",
          "targets": 6,
          "sortable": false
        }
      ]
    },
    "template": {
      "columns": [
        {
          "data": "productId",
          "title": "Product",
          "className": "datatabletd",
          "tooltip": "Product"
        },
        {
          "data": "ruleName",
          "title": "Rule Name",
          "className": "datatabletd",
          "tooltip": "Rule Name"
        },
        {
          "data": "description",
          "title": "Description",
          "className": "datatabletd",
          "tooltip": "Score Card Description"
        },
        {
          "data": "dataAttributeStoreName",
          "title": "Data Attribute Store Name",
          "className": "datatabletd",
          "tooltip": "Data Attribute Store Name"
        },
        {
          "data": "effectiveDate.time",
          "title": "Effective Date",
          "isFunction": true,
          "render": "function(data,type,full,meta) { if (!data) {  return ''; } return moment(data).format('MM/DD/YYYY');}",
          "tooltip": "Effective Date"
        },
        {
          "data": "expiryDate.time",
          "title": "Expiry Date",
          "isFunction": true,
          "render": "function(data,type,full,meta) { if (!data) {  return ''; } return moment(data).format('MM/DD/YYYY');}",
          "tooltip": "Expiry Date"
        },
        {
          "data": null,
          "isFunction": true,
          "render": "function(data,type,full,meta) { var RuleEditor=''; var hasViewScoreCard=''; if(data.id != null && ((self.hasRole('ViewRuleBtn') == true) || (self.hasRole('AddEditRuleBtn') == true))) { RuleEditor=\"<li><a on-click='editRule' href='javascript:'>Edit Rule</a></li>\" }; if(self.hasRole('ViewRuleDefinitionBtn') == true || self.hasRole('AddEditRuleDefinitionBtn') == true) { hasViewScoreCard=\"<li><a on-click='editScoreView' href='javascript:'>Edit</a></li>\" }; return \"<ul class='nav navbar-right' style='font-size:15px; margin: 0 0 0 0;'><li class='dropdown'><a href='javascript:' class='dropdown-toggle' data-toggle='dropdown' role='button' aria-expanded='false' style='padding: 3px 0px 0 5px;'><i class='fa fa-ellipsis-h' aria-hidden='true'></i></a><ul class='dropdown-menu'>\" + hasViewScoreCard  + RuleEditor + \"</ul></li></ul>\" }"
        }
      ],
      "order": [
        [
          0,
          "desc"
        ]
      ],
      "columnDefs": [
        {
          "width": "10%",
          "targets": 0
        },
        {
          "width": "15%",
          "targets": 1
        },
        {
          "width": "20%",
          "targets": 2
        },
        {
          "width": "20%",
          "targets": 3
        },
        {
          "width": "10%",
          "targets": 4
        },
        {
          "width": "10%",
          "targets": 5
        },
        {
          "width": "5%",
          "targets": 6,
          "sortable": false
        }
      ]
    },
    "dataextraction": {
      "columns": [
        {
          "data": "productId",
          "title": "Product",
          "className": "datatabletd",
          "tooltip": "Product"
        },
        {
          "data": "ruleName",
          "title": "Rule Name",
          "className": "datatabletd",
          "tooltip": "Rule Name"
        },
        {
          "data": "description",
          "title": "Description",
          "className": "datatabletd",
          "tooltip": "Score Card Description"
        },
        {
          "data": "dataAttributeStoreName",
          "title": "Data Attribute Store Name",
          "className": "datatabletd",
          "tooltip": "Data Attribute Store Name"
        },
        {
          "data": "effectiveDate.time",
          "title": "Effective Date",
          "isFunction": true,
          "render": "function(data,type,full,meta) { if (!data) {  return ''; } return moment(data).format('MM/DD/YYYY');}",
          "tooltip": "Effective Date"
        },
        {
          "data": "expiryDate.time",
          "title": "Expiry Date",
          "isFunction": true,
          "render": "function(data,type,full,meta) { if (!data) {  return ''; } return moment(data).format('MM/DD/YYYY');}",
          "tooltip": "Expiry Date"
        },
        {
          "data": null,
          "isFunction": true,
          "render": "function(data,type,full,meta) { var RuleEditor=''; var hasViewScoreCard=''; if(data.id != null && ((self.hasRole('ViewRuleBtn') == true) || (self.hasRole('AddEditRuleBtn') == true))) { RuleEditor=\"<li><a on-click='editRule' href='javascript:'>Edit Rule</a></li>\" }; if(self.hasRole('ViewRuleDefinitionBtn') == true || self.hasRole('AddEditRuleDefinitionBtn') == true) { hasViewScoreCard=\"<li><a on-click='editScoreView' href='javascript:'>Edit</a></li>\" }; return \"<ul class='nav navbar-right' style='font-size:15px; margin: 0 0 0 0;'><li class='dropdown'><a href='javascript:' class='dropdown-toggle' data-toggle='dropdown' role='button' aria-expanded='false' style='padding: 3px 0px 0 5px;'><i class='fa fa-ellipsis-h' aria-hidden='true'></i></a><ul class='dropdown-menu'>\" + hasViewScoreCard  + RuleEditor + \"</ul></li></ul>\" }"
        }
      ],
      "order": [
        [
          0,
          "desc"
        ]
      ],
      "columnDefs": [
        {
          "width": "10%",
          "targets": 0
        },
        {
          "width": "15%",
          "targets": 1
        },
        {
          "width": "20%",
          "targets": 2
        },
        {
          "width": "20%",
          "targets": 3
        },
        {
          "width": "10%",
          "targets": 4
        },
        {
          "width": "10%",
          "targets": 5
        },
        {
          "width": "5%",
          "targets": 6,
          "sortable": false
        }
      ]
    },
    "calculation": {
      "columns": [
        {
          "data": "productId",
          "title": "Product",
          "className": "datatabletd",
          "tooltip": "Product"
        },
        {
          "data": "ruleName",
          "title": "Rule Name",
          "className": "datatabletd",
          "tooltip": "Rule Name"
        },
        {
          "data": "description",
          "title": "Description",
          "className": "datatabletd",
          "tooltip": "Score Card Description"
        },
        {
          "data": "dataAttributeStoreName",
          "title": "Data Attribute Store Name",
          "className": "datatabletd",
          "tooltip": "Data Attribute Store Name"
        },
        {
          "data": "effectiveDate.time",
          "title": "Effective Date",
          "isFunction": true,
          "render": "function(data,type,full,meta) { if (!data) {  return ''; } return moment(data).format('MM/DD/YYYY');}",
          "tooltip": "Effective Date"
        },
        {
          "data": "expiryDate.time",
          "title": "Expiry Date",
          "isFunction": true,
          "render": "function(data,type,full,meta) { if (!data) {  return ''; } return moment(data).format('MM/DD/YYYY');}",
          "tooltip": "Expiry Date"
        },
        {
          "data": null,
          "isFunction": true,
          "render": "function(data,type,full,meta) { var RuleEditor=''; var hasViewScoreCard=''; if(data.id != null && ((self.hasRole('ViewRuleBtn') == true) || (self.hasRole('AddEditRuleBtn') == true))) { RuleEditor=\"<li><a on-click='editRule' href='javascript:'>Edit Rule</a></li>\" }; if(self.hasRole('ViewRuleDefinitionBtn') == true || self.hasRole('AddEditRuleDefinitionBtn') == true) { hasViewScoreCard=\"<li><a on-click='editScoreView' href='javascript:'>Edit</a></li>\" }; return \"<ul class='nav navbar-right' style='font-size:15px; margin: 0 0 0 0;'><li class='dropdown'><a href='javascript:' class='dropdown-toggle' data-toggle='dropdown' role='button' aria-expanded='false' style='padding: 3px 0px 0 5px;'><i class='fa fa-ellipsis-h' aria-hidden='true'></i></a><ul class='dropdown-menu'>\" + hasViewScoreCard  + RuleEditor + \"</ul></li></ul>\" }"
        }
      ],
      "order": [
        [
          0,
          "desc"
        ]
      ],
      "columnDefs": [
        {
          "width": "10%",
          "targets": 0
        },
        {
          "width": "15%",
          "targets": 1
        },
        {
          "width": "20%",
          "targets": 2
        },
        {
          "width": "20%",
          "targets": 3
        },
        {
          "width": "10%",
          "targets": 4
        },
        {
          "width": "10%",
          "targets": 5
        },
        {
          "width": "5%",
          "targets": 6,
          "sortable": false
        }
      ]
    },
    "applicable": {
      "columns": [
        {
          "data": "productId",
          "title": "Product",
          "className": "datatabletd",
          "tooltip": "Product"
        },
        {
          "data": "ruleName",
          "title": "Rule Name",
          "className": "datatabletd",
          "tooltip": "Rule Name"
        },
        {
          "data": "description",
          "title": "Description",
          "className": "datatabletd",
          "tooltip": "Score Card Description"
        },
        {
          "data": "dataAttributeStoreName",
          "title": "Data Attribute Store Name",
          "className": "datatabletd",
          "tooltip": "Data Attribute Store Name"
        },
        {
          "data": "effectiveDate.time",
          "title": "Effective Date",
          "isFunction": true,
          "render": "function(data,type,full,meta) { if (!data) {  return ''; } return moment(data).format('MM/DD/YYYY');}",
          "tooltip": "Effective Date"
        },
        {
          "data": "expiryDate.time",
          "title": "Expiry Date",
          "isFunction": true,
          "render": "function(data,type,full,meta) { if (!data) {  return ''; } return moment(data).format('MM/DD/YYYY');}",
          "tooltip": "Expiry Date"
        },
        {
          "data": null,
          "isFunction": true,
          "render": "function(data,type,full,meta) { var RuleEditor=''; var hasViewScoreCard=''; if(data.id != null && ((self.hasRole('ViewRuleBtn') == true) || (self.hasRole('AddEditRuleBtn') == true))) { RuleEditor=\"<li><a on-click='editRule' href='javascript:'>Edit Rule</a></li>\" }; if(self.hasRole('ViewRuleDefinitionBtn') == true || self.hasRole('AddEditRuleDefinitionBtn') == true) { hasViewScoreCard=\"<li><a on-click='editScoreView' href='javascript:'>Edit</a></li>\" }; return \"<ul class='nav navbar-right' style='font-size:15px; margin: 0 0 0 0;'><li class='dropdown'><a href='javascript:' class='dropdown-toggle' data-toggle='dropdown' role='button' aria-expanded='false' style='padding: 3px 0px 0 5px;'><i class='fa fa-ellipsis-h' aria-hidden='true'></i></a><ul class='dropdown-menu'>\" + hasViewScoreCard  + RuleEditor + \"</ul></li></ul>\" }"
        }
      ],
      "order": [
        [
          0,
          "desc"
        ]
      ],
      "columnDefs": [
        {
          "width": "10%",
          "targets": 0
        },
        {
          "width": "15%",
          "targets": 1
        },
        {
          "width": "20%",
          "targets": 2
        },
        {
          "width": "20%",
          "targets": 3
        },
        {
          "width": "10%",
          "targets": 4
        },
        {
          "width": "10%",
          "targets": 5
        },
        {
          "width": "5%",
          "targets": 6,
          "sortable": false
        }
      ]
    }
  }
}