{
    "entities": {
        "Application": [{
                "Description": "Escalation of the application has been accepted with the following notes: {Data.AssignmentResponse.Escalation.RequestNotes}",
                "EntityId": "{Data.AssignmentResponse.EntityId}",
                "EventName": "ApplicationEscalationAccepted",
                "Tags": [
                    "Escalation"
                ],
                "Title": "Escalation"
            },
            {
                "Description": "Escalation of the application has been canceled with the following notes: {Data.AssignmentResponse.Escalation.ResponseNotes}",
                "EntityId": "{Data.AssignmentResponse.EntityId}",
                "EventName": "ApplicationEscalationCanceled",
                "Tags": [
                    "Escalation"
                ],
                "Title": "Escalation"
            },
            {
                "Description": "Escalation of the application has been completed with the following notes: {Data.AssignmentResponse.Escalation.ResponseNotes} ",
                "EntityId": "{Data.AssignmentResponse.EntityId}",
                "EventName": "ApplicationEscalationCompleted",
                "Tags": [
                    "Escalation"
                ],
                "Title": "Escalation"
            },
            {
                "Description": "Application has been escalated with the following notes: {Data.Escalation.RequestNotes}",
                "EntityId": "{Data.Escalation.EntityId}",
                "EventName": "ApplicationEscalationEscalate",
                "Tags": [
                    "Escalation"
                ],
                "Title": "Escalation"
            },
            {
                "EventName": "SignConsentForOtherOwners",
                "EntityId": "{Data.EntityId}",
                "Title": "Consent Sign Request generated for other owners.",
                "Description": "Consent Sign Request generated for owner - $#{Data.Request.OwnerId}$# ",
                "Tags": [
                    "Application"
                ],
                "IsFlagToBeCreated": false
            },
            {
                "EventName": "UpdateLeadRequested",
                "EntityId": "{Data.EntityId}",
                "Title": "Update Lead Requested",
                "Description": "Update Lead Requested",
                "Tags": [
                    "Application"
                ],
                "IsFlagToBeCreated": false
            },
            {
                "EventName": "LoanAgreementOut",
                "EntityId": "{Data.EntityId}",
                "Title": "Loan Agreement Sent ",
                "Description": "Loan Agreement Sent to Primary Owner for signature",
                "Tags": [
                    "Application"
                ],
                "IsFlagToBeCreated": false
            },
            {
                "EventName": "ApplicationStatusChanged",
                "EntityId": "{Data.EntityId}",
                "Title": "Application Status Changed",
                "Description": "{{#if OldStatus}}Application status changed from {Data.OldStatusName} to {Data.NewStatusName} {{else}} Application status set to {Data.NewStatusName} {{/if}} {{#if Reason }}with the following reason:{Data.Reason} {{/if}}",
                "Tags": [
                    "Application",
                    "Status"
                ]
            },
            {
                "EventName": "FactVerificationCompleted",
                "EntityId": "{Data.Fact.EntityId}",
                "Title": "Fact verified",
                "Description": "Fact {Data.Fact.FactName} verified for {Data.Fact.EntityId} and result was {Data.Fact.VerificationStatus}",
                "Tags": [
                    "{Data.Fact.FactName} {Data.Fact.VerificationStatus}"
                ]
            },
            {
                "EventName": "SyndicationCalledEvent",
                "EntityId": "{Data.EntityId}",
                "Title": "Syndication Called",
                "Description": "Syndication {Data.Name} called",
                "Tags": [
                    "public"
                ]
            },
            {
                "EventName": "ApplicationActivityLogged",
                "EntityId": "{Data.ApplicationNumber}",
                "Title": "{Data.Title}",
                "Description": "{Data.Description}",
                "Tags": [
                    "Notes"
                ]
            },
            {
                "EventName": "EmailSent",
                "EntityId": "{Data.EntityId}",
                "Title": "{Data.Subject}",
                "Description": "Email was sent to {Data.Recipient} at {Data.Email} with following details : $$ {Data.Body} $$"
            },
            {
                "EventName": "DatamerchSearchMerchantRequested",
                "EntityId": "{Data.EntityId}",
                "Title": "Syndication Called",
                "Description": "Syndication {Data.Name} called",
                "Tags": [
                    "syndication"
                ]
            },
            {
                "EventName": "YelpServiceGetPhoneDetailsRequested",
                "EntityId": "{Data.EntityId}",
                "Title": "Syndication Called",
                "Description": "Syndication {Data.Name} called",
                "Tags": [
                    "syndication"
                ]
            },
            {
                "EventName": "PaynetSearchCompanyRequested",
                "EntityId": "{Data.EntityId}",
                "Title": "Syndication Called",
                "Description": "Syndication {Data.Name} called",
                "Tags": [
                    "syndication"
                ]
            },
            {
                "EventName": "PaynetGetCompanyReportRequested",
                "EntityId": "{Data.EntityId}",
                "Title": "Syndication Called",
                "Description": "Syndication {Data.Name} called",
                "Tags": [
                    "syndication"
                ]
            },
            {
                "EventName": "PlaidGetAccountsRequested",
                "EntityId": "{Data.EntityId}",
                "Title": "Syndication Called",
                "Description": "Syndication {Data.Name} called",
                "Tags": [
                    "syndication"
                ]
            },
            {
                "EventName": "PlaidGetAllBanksRequested",
                "EntityId": "{Data.EntityId}",
                "Title": "Syndication Called",
                "Description": "Syndication {Data.Name} called",
                "Tags": [
                    "syndication"
                ]
            },
            {
                "EventName": "PlaidGetExchangeTokenRequested",
                "EntityId": "{Data.EntityId}",
                "Title": "Syndication Called",
                "Description": "Syndication {Data.Name} called",
                "Tags": [
                    "syndication"
                ]
            },
            {
                "EventName": "PlaidGetRiskDataRequested",
                "EntityId": "{Data.EntityId}",
                "Title": "Syndication Called",
                "Description": "Syndication {Data.Name} called",
                "Tags": [
                    "syndication"
                ]
            },
            {
                "EventName": "PlaidCalculateCashFlowRequested",
                "EntityId": "{Data.EntityId}",
                "Title": "Syndication Called",
                "Description": "Syndication {Data.Name} called",
                "Tags": [
                    "syndication"
                ]
            },
            {
                "EventName": "BankLinked",
                "EntityId": "{Data.EntityId}",
                "Title": "Bank Linked",
                "Description": "Bank Linked",
                "Tags": [
                    "BankLinked"
                ]
            },
            {
                "EventName": "CashflowVerification",
                "EntityId": "{Data.EntityId}",
                "Title": "CashflowV erification",
                "Description": "Cashflow Verification Completed",
                "Tags": [
                    "CashflowVerification"
                ]
            },
            {
                "EventName": "PlaidBankVerification",
                "EntityId": "{Data.EntityId}",
                "Title": "Plaid Bank Verification",
                "Description": "Plaid Bank Verification Completed",
                "Tags": [
                    "PlaidBankVerification"
                ]
            },
            {
                "EventName": "AgreementDocsOut",
                "EntityId": "{Data.EntityId}",
                "Title": "AgreementDocsOut",
                "Description": "LoanAgreement Document sent",
                "Tags": [
                    "AgreementDocsOut"
                ]
            },
            {
                "EventName": "LoanAgreementSigned",
                "EntityId": "{Data.EntityId}",
                "Title": "LoanAgreementSigned",
                "Description": "LoanAgreement Signed",
                "Tags": [
                    "LoanAgreementSigned"
                ]
            },
            {
                "EventName": "ApplicationAssignmentClaimed",
                "EntityId": "{Data.Assignment.EntityId}",
                "Title": "Assignment",
                "Description": "Application is claimed",
                "Tags": [
                    "userassignment"
                ]
            },
            {
                "EventName": "ApplicationAssignmentAssigned",
                "EntityId": "{Data.Assignment.EntityId}",
                "Title": "Assignment",
                "Description": "Application is assigned",
                "Tags": [
                    "userassignment"
                ]
            },
            {
                "EventName": "ApplicationAssignmentUnassigned",
                "EntityId": "{Data.Assignment.EntityId}",
                "Title": "Assignment",
                "Description": "Application is unassigned",
                "Tags": [
                    "userassignment"
                ]
            },
            {
                "EventName": "ApplicationAssignmentReleased",
                "EntityId": "{Data.Assignment.EntityId}",
                "Title": "Assignment",
                "Description": "Application is Released",
                "Tags": [
                    "userassignment"
                ]
            },
            {
                "EventName": "WhitePagesIdentityCheckRequested",
                "EntityId": "{Data.EntityId}",
                "Title": "Syndication Called",
                "Description": "Syndication {Data.Name} called",
                "Tags": [
                    "syndication"
                ]
            },
            {
                "EventName": "BizApiSearchSicCodeRequested",
                "EntityId": "{Data.EntityId}",
                "Title": "Syndication Called",
                "Description": "Syndication {Data.Name} called",
                "Tags": [
                    "syndication"
                ]
            },
            {
                "EventName": "PerfectAuditStatementUploaded",
                "EntityId": "{Data.EntityId}",
                "Title": "Send to Ocrolus",
                "Description": "Bank Statements send to Ocrolus",
                "Tags": []
            },
            {
                "EventName": "TaskApplicationsExpiryCalled",
                "EntityId": "{Data.EntityId}",
                "Title": "Application Expired",
                "Description": "Application Expired",
                "Tags": []
            },
            {
                "EventName": "EventGetCompanyhistory",
                "EntityId": "{Data.EntityId}",
                "Title": "Syndication Called",
                "Description": "Syndication probe called",
                "Tags": [
                    "syndication"
                ]
            },
            {
                "EventName": "CompanyDetailRequested",
                "EntityId": "{Data.EntityId}",
                "Title": "Syndication Called",
                "Description": "Syndication {Data.Name} called",
                "Tags": [
                    "syndication"
                ]
            },
            {
                "EventName": "CorpositorySearchCompanyCalled",
                "EntityId": "{Data.EntityId}",
                "Title": "Corpository Search Company",
                "Description": "Corpository Search Company",
                "Tags": [
                    "syndication",
                    "Corpository"
                ]
            },
            {
                "EventName": "CorpositorySearchCompanyHistoryPulled",
                "EntityId": "{Data.EntityId}",
                "Title": "Corpository Search Company Histry Report",
                "Description": "Corpository Search Company Histry Report Pulled",
                "Tags": [
                    "syndication",
                    "Corpository"
                ]
            },
            {
                "EventName": "BankStatementUploaded",
                "EntityId": "{Data.EntityId}",
                "Title": "Bank Statement Uploaded",
                "Description": "Bank Statements CSV Uploaded",
                "Tags": []
            },
            {
                "EventName": "GenerateCashflow",
                "EntityId": "{Data.EntityId}",
                "Title": "Cashflow is generated",
                "Description": "Cashflow is generated successfully",
                "Tags": []
            },
            {
                "EventName": "ManualGenerateCashflow",
                "EntityId": "{Data.EntityId}",
                "Title": "Manual Cashflow is generated",
                "Description": "Manual Cashflow is generated successfully",
                "Tags": []
            },
            {
                "EventName": "ProductDecisionCompleted",
                "EntityId": "{Data.EntityId}",
                "Title": "Product decision done",
                "Description": "Product decision done successfully",
                "Tags": []
            },
            {
                "EventName": "VerificationDocumentReceived",
                "EntityId": "{Data.EntityId}",
                "Title": "Document Uploaded",
                "Description": "{Data.DocumentName} Document Uploaded for the Fact {Data.Fact}",
                "Tags": []
            },
            {
                "EventName": "LoanapplicationDocumentGenerated",
                "EntityId": "{Data.EntityId}",
                "Title": "Loanapplication Document Generated",
                "Description": "Loanapplication document generated successfully",
                "Tags": []
            },
            {
                "EventName": "LoanAgreementGenerated",
                "EntityId": "{Data.EntityId}",
                "Title": "LoanAgreement Generated",
                "Description": "LoanAgreement generated successfully",
                "Tags": []
            },
            {
                "EventName": "OwnerConsentGenerated",
                "EntityId": "{Data.EntityId}",
                "Title": "OwnerConsentGenerated",
                "Description": "OwnerConsent generated successfully",
                "Tags": []
            },
            {
                "EventName": "CashflowReportGenerated",
                "EntityId": "{Data.EntityId}",
                "Title": "CashflowReportGenerated",
                "Description": "CashflowReport generated successfully",
                "Tags": []
            },
            {
                "EventName": "BankDetailsAddedSuccess",
                "EntityId": "{Data.EntityId}",
                "Title": "AddBank",
                "Description": "Bank details addedd successfully",
                "Tags": []
            },
            {
                "EventName": "CashflowReportEdited",
                "EntityId": "{Data.EntityId}",
                "Title": "Cashflow Report Edited",
                "Description": "Cashflow Statement of {Data.AccountHeader}  {Data.Name} edited ",
                "Tags": []
            },
            {
                "EventName": "CashflowAccountEdited",
                "EntityId": "{Data.EntityId}",
                "Title": "Cashflow Account Edited",
                "Description": "Account Details of {Data.BankName}  {Data.AccountType} edited ",
                "Tags": []
            }
        ],
        "drawdown": [{
                "EventName": "DocumentAdded",
                "EntityId": "{Data.EntityId}",
                "Title": "Document Added",
                "Description": "{Data.Document.FileName}  document Added",
                "Tags": [
                    "Drawdown",
                    "Document"
                ],
                "IsFlagToBeCreated": false
            },
            {
                "EventName": "DrawdownStatusChanged",
                "EntityId": "{Data.EntityId}",
                "Title": "Drawdown Status Changed",
                "Description": "{{#if OldStatus}}Drawdown status changed from {Data.OldStatusName} to {Data.NewStatusName} {{else}} Drawdown status set to {Data.NewStatusName} {{/if}} {{#if Reason }}with the following reason:{Data.Reason} {{/if}}",
                "Tags": [
                    "Drawdown",
                    "Status"
                ]
            },
            {
                "EventName": "FactVerificationCompleted",
                "EntityId": "{Data.Fact.EntityId}",
                "Title": "Fact verified",
                "Description": "Fact {Data.Fact.FactName} verified for {Data.Fact.EntityId} and result was {Data.Fact.VerificationStatus}",
                "Tags": [
                    "{Data.Fact.FactName} {Data.Fact.VerificationStatus}"
                ]
            },
            {
                "EventName": "DatamerchSearchMerchantRequested",
                "EntityId": "{Data.EntityId}",
                "Title": "Syndication Called",
                "Description": "Syndication {Data.Name} called",
                "Tags": [
                    "syndication"
                ]
            },
            {
                "EventName": "SyndicationCalledEvent",
                "EntityId": "{Data.EntityId}",
                "Title": "Syndication Called",
                "Description": "Syndication {Data.Name} called",
                "Tags": [
                    "public"
                ]
            },
            {
                "EventName": "LoanAgreementOut",
                "EntityId": "{Data.EntityId}",
                "Title": "Loan Agreement Sent ",
                "Description": "Loan Agreement Sent to Primary Owner for signature",
                "Tags": [
                    "drawdown",
                    "agreement"
                ],
                "IsFlagToBeCreated": false
            },
            {
                "EventName": "LocLoanAgreementGenerated",
                "EntityId": "{Data.EntityId}",
                "Title": "LocLoanAgreementGenerated",
                "Description": "LocLoanAgreement generated successfully",
                "Tags": []
            },
            {
                "EventName": "DrawdownActivityLogged",
                "EntityId": "{Data.ApplicationNumber}",
                "Title": "{Data.Title}",
                "Description": "{Data.Description}",
                "Tags": [
                    "Notes"
                ]
            }
        ],
        "loan": [{
                "EventName": "BankDetailsAdded",
                "EntityId": "{Data.LoanNumber}",
                "Title": "Bank details added",
                "Description": "Details of bank added",
                "Tags": []
            },
            {
                "EventName": "BankDetailsUpdated",
                "EntityId": "{Data.LoanNumber}",
                "Title": "Bank details updated",
                "Description": "Details of bank updated",
                "Tags": []
            },
            {
                "EventName": "LoanOnboarded",
                "EntityId": "{Data.LoanNumber}",
                "Title": "Loan on-boarded",
                "Description": "New Loan on-boarded",
                "Tags": []
            },
            {
                "EventName": "LoanDetailsUpdated",
                "EntityId": "{Data.LoanNumber}",
                "Title": "Loan details updated",
                "Description": "On-boarded loan details updated",
                "Tags": []
            },
            {
                "EventName": "LoanScheduleCreated",
                "EntityId": "{Data.LoanNumber}",
                "Title": "Loan schedule details created",
                "Description": "Loan schedule added for loan",
                "Tags": []
            },
            {
                "EventName": "LoanScheduleUpdated",
                "EntityId": "{Data.LoanNumber}",
                "Title": "Loan schedule details updated",
                "Description": "Loan schedule updated for loan",
                "Tags": []
            },
            {
                "EventName": "AmountExceed",
                "EntityId": "{Data.LoanNumber}",
                "Title": "Amount exceed",
                "Description": "Amount is exceeded",
                "Tags": []
            },
            {
                "EventName": "PaymentReceived",
                "EntityId": "{Data.LoanNumber}",
                "Title": "Payment Received",
                "Description": "Payment received on $#{Data.PaymentInfo.LastPaymentReceivedDate}$#",
                "Tags": []
            },
            {
                "EventName": "PaymentMissed",
                "EntityId": "{Data.LoanNumber}",
                "Title": "Payment Missed",
                "Description": "Payment missed on $#{Data.ProcessingDate}$#",
                "Tags": []
            },
            {
                "EventName": "LoanActivityLogged",
                "EntityId": "{Data.LoanNumber}",
                "Title": "{Data.Title}",
                "Description": "{Data.Description}",
                "Tags": [
                    "Notes"
                ]
            },
            {
                "EventName": "EmailSent",
                "EntityId": "{Data.EntityId}",
                "Title": "{Data.Subject}",
                "Description": "Email was sent with following details : $$ {Data.Body} $$"
            },
            {
                "EventName": "ChargeOff",
                "EntityId": "{Data.LoanNumber}",
                "Title": "Loan charged off",
                "Description": "Loan charged off on $#{Data.ChargeOff.ChargeOffDate}$#",
                "Tags": []
            },
            {
                "EventName": "PendingChargeOff",
                "EntityId": "{Data.LoanNumber}",
                "Title": "Loan charged off",
                "Description": "Loan sent for change-off review",
                "Tags": []
            },
            {
                "EventName": "RejectChargeOff",
                "EntityId": "{Data.LoanNumber}",
                "Title": "Loan charged off",
                "Description": "ChargeOff Request Rejected",
                "Tags": []
            },
            {
                "EventName": "SellOff",
                "EntityId": "{Data.LoanNumber}",
                "Title": "Loan sold off",
                "Description": "Loan sold off on $#{Data.SellOff.SellOffDate}$#",
                "Tags": []
            },
            {
                "EventName": "PaidOff",
                "EntityId": "{Data.LoanNumber}",
                "Title": "Loan paid off",
                "Description": "Loan paid off on $#{Data.PaymentInfo.LastPaymentReceivedDate}$#",
                "Tags": []
            },
            {
                "EventName": "CallNoteAdded",
                "EntityId": "{Data.callNote.EntityId}",
                "Title": "Contacted",
                "Description": "Call notes added  with following details : $$CallNotes$$",
                "Tags": [
                    "Call Notes"
                ]
            },
            {
                "EventName": "DiscountApplied",
                "EntityId": "{Data.LoanNumber}",
                "Title": "Discount applied",
                "Description": "Discount applied",
                "Tags": []
            },
            {
                "EventName": "DiscountReversed",
                "EntityId": "{Data.LoanNumber}",
                "Title": "Discount reversed",
                "Description": "Discount reversed",
                "Tags": []
            },
            {
                "EventName": "CallNoteUpdated",
                "EntityId": "{Data.callNote.EntityId}",
                "Title": "Call notes updated",
                "Description": "Call notes updated",
                "Tags": []
            },
            {
                "EventName": "CallRecordingUploaded",
                "EntityId": "{Data.callNote.EntityId}",
                "Title": "Call recording uploaded",
                "Description": "Call recording uploaded  with following details : $$CallNotes$$",
                "Tags": []
            },
            {
                "EventName": "DrawdownCreated",
                "EntityId": "{Data.LoanNumber}",
                "Title": "New drawdown added",
                "Description": "New drawdown added $#{Data.Response.FundedDate.Time}$#",
                "Tags": []
            },
            {
                "EventName": "AccrualStop",
                "EntityId": "{Data.LoanNumber}",
                "Title": "Accrual stopped",
                "Description": "Accrual stopped on $#{Data.AccrualStopDate}$#",
                "Tags": []
            },
            {
                "EventName": "AccrualStarted",
                "EntityId": "{Data.LoanNumber}",
                "Title": "Restarted Accrual",
                "Description": "Restarted Accrual  on $#{Data.Accrual.ProcessingDate}$#",
                "Tags": []
            },
            {
                "EventName": "AutoPayStarted",
                "EntityId": "{Data.LoanNumber}",
                "Title": "Restarted auto pay",
                "Description": "Restarted auto pay on $#{Data.LoanInformation.AutoPayStartDate.Time}$#",
                "Tags": []
            },
            {
                "EventName": "AutoPayStop",
                "EntityId": "{Data.LoanNumber}",
                "Title": "Auto pay paused",
                "Description": "Auto pay paused on $#{Data.LoanInformation.AutoPayStopDate.Time}$#",
                "Tags": []
            },
            {
                "EventName": "AutoPayRangeEntered",
                "EntityId": "{Data.LoanNumber}",
                "Title": "Auto pay stope in Range",
                "Description": "Auto-pay will be paused on $#{Data.LoanInformation.AutoPayStopDate.Time}$# and resumed on $-{Data.LoanInformation.AutoPayStartDate.Time}$-",
                "Tags": []
            },
            {
                "EventName": "FeeApplied",
                "EntityId": "{Data.LoanNumber}",
                "Title": "Fee is applied",
                "Description": "Fee is applied for {Data.FeeName}",
                "Tags": []
            },
            {
                "EventName": "LoanStatusChanged",
                "EntityId": "{Data.EntityId}",
                "Title": "Status is Changed",
                "Description": "Status is changed from  {Data.OldStatusName} to {Data.NewStatusName}",
                "Tags": []
            },
            {
                "EventName": "LoanSubStatusChanged",
                "EntityId": "{Data.EntityId}",
                "Title": "Sub-status is Changed",
                "Description": "Sub status is changed to {Data.NewSubStatusName}",
                "Tags": []
            },
            {
                "EventName": "LoanProcessSubWorkFlow",
                "EntityId": "{Data.EntityId}",
                "Title": "Sub workflow initiated",
                "Description": "{Data.NewStatusName} sub workflow initiated",
                "Tags": []
            },
            {
                "EventName": "ReversePayment",
                "EntityId": "{Data.LoanNumber}",
                "Title": "Payment is Reversed",
                "Description": "Payment is reversed",
                "Tags": []
            },
            {
                "EventName": "ReverseFee",
                "EntityId": "{Data.LoanNumber}",
                "Title": "Fee is Reversed",
                "Description": "Fee is reversed",
                "Tags": []
            },
            {
                "EventName": "LoanClosed",
                "EntityId": "{Data.LoanNumber}",
                "Title": "Loan is Closed",
                "Description": "Loan is Closed",
                "Tags": []
            },
            {
                "EventName": "ExcessPaymentModified",
                "EntityId": "{Data.LoanNumber}",
                "Title": "Excess payment modified",
                "Description": "Excess payment modified",
                "Tags": []
            },
            {
                "EventName": "ExcessPaymentAccounted",
                "EntityId": "{Data.LoanNumber}",
                "Title": "Excess payment accounted",
                "Description": "Excess payment accounted",
                "Tags": []
            },
            {
                "EventName": "ExcessPaymentRefunded",
                "EntityId": "{Data.LoanNumber}",
                "Title": "Excess payment refunded",
                "Description": "Excess payment refunded",
                "Tags": []
            },
            {
                "EventName": "ManualFactVerificationInitiated",
                "EntityId": "{Data.EntityId}",
                "Title": "Fact initiated",
                "Description": "{Data.Fact} Fact initiated",
                "Tags": []
            },
            {
                "EventName": "VerificationDocumentReceived",
                "EntityId": "{Data.EntityId}",
                "Title": "Document Uploaded",
                "Description": "{Data.DocumentName} Document Uploaded for the Fact {Data.Fact}",
                "Tags": []
            },
            {
                "EventName": "FactVerificationCompleted",
                "EntityId": "{Data.Fact.EntityId}",
                "Title": "Fact verified",
                "Description": "{Data.Fact.FactName} Fact verified",
                "Tags": []
            },
            {
                "EventName": "FailedPayment",
                "EntityId": "{Data.EntityId}",
                "Title": "Fact verified",
                "Description": "Payment Failed",
                "Tags": []
            },
            {
                "EventName": "LoanModCreated",
                "EntityId": "{Data.LoanNumber}",
                "Title": "Loan mod created",
                "Description": "Loan Mod Created",
                "Tags": []
            }
        ]
    },
    "database": "activity-log"
}