{
    "statuses": {
        "LeadCreated": "100.10",
        "ApplicationSubmitted": "100.20",
        "Verification": "100.30",
        "FinalVerification": "100.50",
        "OtherLenders": "600.50",
        "OfferGeneration": "500.10",
        "DocsRequested": "500.20",
        "AgreementDocsOut": "500.40",
        "FundingReview": "500.60",
        "Approved For Funding": "500.70",
        "Funded": "500.70",
        "Terminated At Funding": "500.91",
        "Expired": "500.92",
        "Declined": "500.93",
        "Open": "700.60"
    },
    "RenewalStatuses": {
        "ApplicationSubmitted": "800.20",
        "Verification": "800.30",
        "OtherLenders": "600.50",
        "OfferGeneration": "800.50",
        "AgreementDocsOut": "800.60",
        "FundingReview": "800.70",
        "Approved For Funding": "800.80",
        "Funded": "800.90",
        "Terminated At Funding": "800.91",
        "Expired": "800.92",
        "Declined": "800.93"
    },
    "Locstatuses": {
        "OfferGeneration": "700.10",
        "OtherLenders": "600.50",
        "DocsRequested": "700.20",
        "AgreementDocsOut": "700.40",
        "Open": "700.60",
        "Approved For Funding": "700.70",
        "Terminated At Funding": "700.91",
        "Expired": "700.92",
        "Declined": "700.93"
    },
    "RenewalLocStatuses": {
        "ApplicationSubmitted": "900.20",
        "Verification": "900.30",
        "OtherLenders": "600.50",
        "OfferGeneration": "900.50",
        "AgreementDocsOut": "900.60",
        "FundingReview": "900.70",
        "Open": "900.80",
        "Closed": "900.90",
        "Terminated At Funding": "900.91",
        "Expired": "900.92",
        "Declined": "900.93"
    },
    "ProductId": {
        "mca": "mca",
        "mcaloc": "mcaloc",
        "StarterMCA": "StarterMCA",
        "TraditionalMCA": "TraditionalMCA",
        "StreamLineLoc": "StreamLineLoc",
        "PremiumLoc": "PremiumLoc",
        "PlatinumLoc": "PlatinumLoc"
    },
    "PaybackTiers": null,
    "TermConversions": [
        {
            "Term": 6,
            "Frequency": "Daily",
            "NoOfPayments": "138"
        },
        {
            "Term": 6,
            "Frequency": "Weekly",
            "NoOfPayments": "28"
        }
    ],
    "ImageConfiguration": {
        "Logo": "http://{{external_ip}}:9003/images/lendfoundry_logo300x62.png",
        "ContactAddress": "http://{{external_ip}}:9002/static/demo/images/contact_address.jpg"
    },
    "ProductDecisionRuleName": "rule_product_decision",
    "reApplyTimeFrameDays": "90",
    "reApplyStatuses": [],
    "reApplyStatuseCodes": [],
    "PaynetReportFormat": "BNDL",
    "DefaultPassword": "Sigma@123",
    "PhoneFormat": "($1)-$2-$3$4",
    "PhonePattern": "^(\\d{3})[ -]?(\\d{3})[ -]?(\\d{4})( x\\d+)?",
    "InitialAssigmentRole": "Sales Cordinator",
    "WelcomeUrl": "",
    "SignOwnerAppUrl": "https://{{external_ip}}/sign-application/",
    "ConsentSignExpirationDays": 1,
    "LenderName": {
        "Prestala": "Lendfoundry",
        "OtherLenders": "Other Lenders"
    },
    "DocumentCategory": {
        "LoanAgreement": "loanagreement",
        "SignedDocument": "contractviadocusign",
        "Paynet": "paynet",
        "TermofUseConsent": "TermofUseConsent",
        "PrivacypolicyConsent": "PrivacypolicyConsent",
        "OwnerConsent": "OwnerConsent",
        "Doctobesign": "doctobesign",
        "Application": "application",
        "BusinessCreditReport": "businesscreditreport",
        "ownerconsent": "ownerconsent",
        "loanapplcation": "loanapplication"
    },
    "FailureMaxRetry": 10,
    "BusinessCreditReport": "true",
    "MaxPaynetMatchScore": 90,
    "MinPaynetMatchScore": 60,
    "ScheduledCreatedReason": "tempreason",
    "ScheduleNotes": "New schedule add",
    "WorkflowName": {
        "ApprovalFlow": "ApplicationApprovalFlow",
        "SystemFlow": "SystemFlow"
    },
    "DataAttributes": {
        "cashflowAttribute": "cashflowVerificationResult",
        "fundingaccount": "fundingaccountData",
        "reminderEmailData": "reminderEmailData"
    },
    "DecidedProductStatus": "OfferGeneration",
    "DefaultProductId": "mca",
    "events": [
        {
            "Name": "SignedDocumentReceived",
            "EntityId": "{Data.EntityId}",
            "Response": "{Data.Response}",
            "EntityType": "{Data.EntityType}",
            "MethodToExecute": "SignDocumentReceivedHandler"
        },
        {
            "Name": "ApplicationFundingStatusUpdated",
            "EntityId": "{Data.EntityId}",
            "Response": "{Data.Response}",
            "EntityType": "{Data.EntityType}",
            "MethodToExecute": "FundingStatusHandler"
        },
        {
            "Name": "EventBankLinkRequested",
            "EntityId": "{Data.EntityId}",
            "Response": "{Data.Response}",
            "EntityType": "{Data.EntityType}",
            "MethodToExecute": "BanKLinkRequestedHandler"
        },
        {
            "Name": "EventAgreementDocsOut",
            "EntityId": "{Data.EntityId}",
            "Response": "{Data.Response}",
            "EntityType": "{Data.EntityType}",
            "MethodToExecute": "MCAAgreementHandler"
        },
        {
            "Name": "ExperianBusinessReportFetched",
            "EntityId": "{Data.EntityId}",
            "Response": "{Data.Response}",
            "ResponseObject": "{Data.ResponseObject}",
            "EntityType": "{Data.EntityType}",
            "MethodToExecute": "ExperianBusinessCreditReporHandler"
        },
        {
            "Name": "CashflowAccountSelected",
            "EntityId": "{Data.EntityId}",
            "Response": "{Data.Response}",
            "EntityType": "{Data.EntityType}",
            "MethodToExecute": "CashflowAccountSelectedHandler"
        },
        {
            "Name": "FundingAccountSelected",
            "EntityId": "{Data.EntityId}",
            "Response": "{Data.Response}",
            "EntityType": "{Data.EntityType}",
            "MethodToExecute": "FundingAccountSelectedHandler"
        },
        {
            "Name": "ApplicationPDFRequested",
            "EntityId": "{Data.EntityId}",
            "Response": "{Data.Response}",
            "EntityType": "{Data.EntityType}",
            "MethodToExecute": "ApplicationPDFHandler"
        },
        {
            "Name": "EventBankVerificationCompleted",
            "EntityId": "{Data.EntityId}",
            "Response": "{Data.Response}",
            "EntityType": "{Data.EntityType}",
            "MethodToExecute": "MCAAgreementCreationHandler"
        },
        {
            "Name": "EventLenderDecision",
            "EntityId": "{Data.EntityId}",
            "Response": "{Data.Response}",
            "EntityType": "{Data.EntityType}",
            "MethodToExecute": "LenderDecisionRuleHandler"
        },
        {
            "Name": "UpdateRoutingNumberAndAccountNumber",
            "EntityId": "{Data.EntityId}",
            "Response": "{Data.Response}",
            "EntityType": "{Data.EntityType}",
            "MethodToExecute": "UpdateDealHandler"
        },
        {
            "Name": "ApplicationStatusChanged",
            "EntityId": "{Data.EntityId}",
            "Response": "{Data.Response}",
            "EntityType": "{Data.EntityType}",
            "MethodToExecute": "LoanOnBoardHandler"
        },
        {
            "Name": "PDFAccountAndTransactionRequested",
            "Response": "{Data.Response.book_pk}",
            "ResponseObject": "{Data.Response}",
            "MethodToExecute": "GetOcrolusReportHandler"
        }
    ],
    "ApplicatntPortal": "borrower-portal",
    "DefaultApplicantRoles": [
        "Applicant"
    ],
    "AutoOnBoardLoan": true,
    "ResetFacts": [
        "BankruptcyVerification",
        "SignedDocumentVerification",
        "WelcomeCallVerification",
        "IDVerification",
        "BankVerification"
    ],
    "ShouldFundedToLenderAccount":true,
    "FundingSourceId":"1001",
    "LenderFundingSourceId" : "1002",   
    "LenderBankDetials":{
    	"AccountNumber": "3657658505",
    	"RoutingNumber":"24353",
    	"NameOnAccount":"peter busby",
    	"AccountType":"savings"
    },
    "LenderSignature": {
        "Email": "lftenant@yopmail.com",
        "Name": "Lendfoundry"
    },
    "NumberOfBusinessDaysInMonth": 23,
    "NumberOfBusinessDaysInWeek": 5,
    "Database":"application-processor",
    "DefaultPortfolioType": "mca"
    
}