{
    "storageSettings": {
        "DataStoreName": "MyData.txt",
        "RootFolderPath": "/documents"
    },
    "storageEngine": "FileSystem",
    "Database": "document-manager",
    "entities": [
        {
            "EntityName": "Application",
            "DocumentConfigurations": [
                {
                    "groupName": "consentandagreement",
                    "category": [
                        "applicationconsent",
                        "loanapplication",
                        "loanagreement"
                    ]
                },
                {
                    "groupName": "borrowerdocument",
                    "category": [
                        "bankstatement",
                        "businessVerification",
                        "personalVerification",
                        "relationshipVerification",
                        "lienJudgementResolution",
                        "photoid",
                        "rentalagreement",
                        "utilitybill",
                        "voidedcheck",
                        "taxdeclaration",
                        "passport",
                        "anyotherincomeproof",
                        "paynet",
                        "cashflow",
                        "other",
                        "thirdparty",
                        "proofofpropertyownership",
                        "businesscreditreport",
                        "application",
                        "driverlicense",
                        "paystub",
                        "signeddocument",
                        "uiddocument",
                        "photo",
                        "formw2"
                    ]
                },
                {
                    "groupName": "signeddocument",
                    "category": [
                        "signeddocument"
                    ]
                }
            ]
        },
        {
            "EntityName": "loan",
            "DocumentConfigurations": [
                {
                    "groupName": "borrowerdocument",
                    "category": [
                        "other",
                        "bankruptcydocument",
                        "deceaseddocument",
                        "militarydocument",
                        "forbearancedocument",
                        "modificationrequestdocument",
                        "tdscertificate"
                    ]
                },
                {
                    "groupName": "signeddocument",
                    "category": [
                        "signeddocument"
                    ]
                }
            ]
        }
    ]
}