{
    "verificationexpirywindow": "1",
    "emailVerificationSettings": {
      "borrower": {
        "templatename": "EmailVerification",
        "version": "1.0",
        "format": "Html"
      },
      "merchant": {
        "templatename": "EmailVerification",
        "version": "1.0",
        "format": "Html"
      }
    },
  "Database": "email-verification"
    
  }