{
    "application": [
        {
            "db": "application-filters",
            "collection": "application-filters",
            "type": "filter"
        },
        {
            "db": "application-filters",
            "collection": "application-filters-tags",
            "type": "tag"
        }
    ],
    "drawdown": [
        {
            "db": "drawdown-filters",
            "collection": "drawdown-filters",
            "type": "filter"
        },
        {
            "db": "drawdown-filters",
            "collection": "drawdown-filters-tags",
            "type": "tag"
        }
    ],
    "partner": [
        {
            "db": "partner-filters",
            "collection": "partner-filters",
            "type": "filter"
        }
    ],
    "poll": [
        {
            "db": "voting",
            "collection": "poll-filters",
            "type": "filter"
        }
    ],
    "loan": [
        {
            "db": "loan-filters",
            "collection": "loan-filters",
            "type": "filter"
        },
        {
            "db": "loan-filters",
            "collection": "loan-filters-tags",
            "type": "tag"
        },
        {
            "db": "loan-filters",
            "collection": "loan-filters",
            "fields": [
                "LoanNumber"
            ],
            "type": "none"
        },
        {
            "db": "tag-filters",
            "collection": "loan-tags",
            "fields": [
                "EntityId",
                "Tags.0.TagName"
            ],
            "type": "none"
        },
        {
            "db": "loan-management",
            "collection": "loan-onboarding",
            "fields": [
                "LoanNumber"
            ],
            "type": "none"
        },
        {
            "db": "loan-management",
            "collection": "loan-schedule",
            "fields": [
                "LoanNumber"
            ],
            "type": "none"
        }
    ],
    "cashflow": [
        {
            "db": "cashflow",
            "collection": "BankTransaction",
            "type": "filter"
        }
    ],
    "tasks": [
        {
            "db": "task-logs",
            "collection": "task-logs",
            "fields": [
                "TaskName"
            ],
            "type": "none"
        }
    ],
    "tasksfilter": [
        {
            "db": "task-logs",
            "collection": "task-logs",
            "type": "filter"
        }
    ],
    "reportsfilter": [
        {
            "db": "task-logs",
            "collection": "loan-report",
            "type": "filter"
        }
    ],
    "ibvtransaction": [
        {
            "db": "ibv",
            "collection": "banktransaction",
            "fields": [
                "ProviderAccountId"
            ],
            "type": "filter"
        }
    ],
    "feesData": [
        {
            "db": "accrual-balance",
            "collection": "fees",
            "type": "filter"
        }
    ],
    "feesTransactionData": [
        {
            "db": "accrual-balance",
            "collection": "transaction",
            "type": "filter"
        }
    ]
}