{
    "isLive": "False",
    "apiurl": "https://tartan.plaid.com/",
    "proxyUrl": "",
    "secret": "f1ec279bd72bdde87e1fbdef098f45",
    "useProxy": "true",
    "transactionDays": "365",
    "clientId": "584683ca39361950fd107ac5",
    "tlsVersion": "1.2",
    "SimulationUrl": "http://172.31.30.252:7022/plaid",
    "UseSimulation": true,
    "selectAccount": "false",
    "EntityType": "application",
    "events": [
        {
            "Name": "AccountAndTransactionRequested",
            "Response": "{Data.Response}",
            "CompletionEvents": [
                "BankLinked",
                "CalculateCashflowCompleted"
            ],
            "Rule": "plaid_data_extraction"
        },
        {
            "Name": "CalculateCashflowDrawDown",
            "EntityId": "{Data.EntityId}",
            "Response": "{Data.Response}",
            "Request": "{Data.Request}",
            "EntityType": "{Data.EntityType}",
            "CompletionEventName": [
                "CalculateCashFlowEventHandler"
            ],
            "Rule": "plaid_data_extraction"
        }
    ],
    "clientName": "LendFoundry Demo Tenant",
    "environment": "tartan",
    "key": "test_key",
    "product": [
        "connect"
    ],
    "enableBulkTransaction": false,
    "transactionBatchCount": 2000,
    "accountBatchCount": 10,
    "enableBulkAccount": true,
    "ErrorCodesForRefresh": [
        1200,
        1201,
        1202,
        1203,
        1205,
        1213,
        1215
    ],
    "ErrorCodesForReInit": [
        1600,
        1601,
        1605,
        1606,
        1206,
        1210,
        1212,
        1213,
        1105,
        1106,
        1107,
        1007
    ]
}
