{
    "ApiVersion": "1.2",
    "ApiKey": "1Lk2ZkqYak64Jixue9R0617k7EUGsBRk8Xpj7QMs",
    "ServiceUrls": "https://api.probe42.in/probe_lite/",
    "Limit": 25,
    "Offset": 0,
    "SearchFilterValue": "nameContains",
    "Database": "probe"

}