{
    "Username": "devapi.lendfoundry",
    "Password": "y$4hanudr3@uSteCrufe54ce",
    "PermissibleUseCode": "30",
    "Version": "46",
    "GlbPurpose": "6",
    "DppaPurpose": "2",
    "ExpirationInDays": "1",
    "Url": "http://{{external_ip}}:7022/blcreditreport",
    "ReportType": "PDF",
    "Database": "bl-credit-report"
}