{
  "Name": "PlaidExceptionEmail",
  "Title": "Plaid Exception Email",
  "Format": "Html",
  "Body": "<!doctype html><html><head><meta charset='utf-8'><title>Fast Capital 360</title></head><body><div style='margin:0px auto; padding:0px; width:650px; background:#fff; color:#6c6c71; font-size:16px; font-family:Arial, sans-serif;'><div style='width:600px; background:#fff; border:solid 10px #bcbcbf; padding:25px 25px 10px 25px; float:left;'><div style='text-align:center; margin:10px 0px 20px 0px;'><a href='#'><img src='{{Logo}}' alt='Sigma' border='0' /></a></div><p>Template for email for “LF should send an information to Borrower asking them to talk with their Financial Institution to release their account restriction</p><br><p style='width:100%; float:left; margin:15px 0px 0px 0px;'>Thanks,</br>Sigma</p></div></div></body></html>",
  "Version": "1.0",
  "Properties": "{\"pdfSettings\":{\"pageSize\":\"A4\",\"pageWidth\":\"21cm\",\"pageHeight\":\"29.7cm\",\"orientation\":\"portrait\",\"dpi\":300,\"imageQuality\":90,\"marginTop\":\"10\",\"marginBottom\":\"10\",\"marginLeft\":\"10\",\"marginRight\":\"10\"}}"
}