{
  "Username": "devapi.lendfoundry",
  "Password": "Sigma@97Inc",
  "PermissibleUseCode": "30",
  "Version": "43",
  "GlbPurpose": "6",
  "DppaPurpose": "2",
  "ExpirationInDays": " 1",
  "Url":"https://webservice.tlo.com/TLOWebService.asmx"
}