{
    "modes": {
     "EquifaxSoftpull": {
      "expirationInDays": "0",
      "providerType": "Equifax",
      "title": "Equifax",
      "providerSettings": {
       "siteId": "redacted",
       "siteUrl": "https://transport5.ec.equifax.com/ists/stspost",
       "siteUserName": "redacted",
       "siteUserPassword": "redacted",
       "serviceName": "acrotest",
       "version": "7.0",
       "CustomerConfiguration": {
           "CustomerCode": "redacted",
           "CustomerNumber": "redacted",
           "SecurityCode": "redacted"
       },
       "OptionalFeaturesConfiguration": {
        "OutputFormat": "T2",
        "DefaultModelFlag": "N"
       },
       "EndUserConfiguration": {
        "UserName": "LendFoundry Demo Tenant",
        "PermissiblePurposeCode": ""
       },
       "ModelNumbers": []
      }
     }
    },
    "defaultMode": "EquifaxSoftpull"
   }
