{
    "A": "Petition for Chapter 7",
    "B": "Petition for Chapter 11",
    "C": "Petition for Chapter 12",
    "D": "Petition for Chapter 13",
    "E": "Discharged through Chapter 7",
    "F": "Discharged through Chapter 11",
    "G": "Discharged through Chapter 12",
    "H": "HDischarged through Chapter 13",
    "I": "Chapter 7 Dismissed",
    "J": "Chapter 11 Dismissed",
    "K": "Chapter 12 Dismissed",
    "L": "Chapter 13 Dismissed",
    "M": "Chapter 7 Withdrawn",
    "N": "Chapter 11 Withdrawn",
    "O": "Chapter 12 Withdrawn",
    "P": "Chapter 13 Withdrawn",
    "Z": "Unknown chapter",
    "1A": "Personal Receivership",
    "Q": "Remove previously reported Bankruptcy Indicator",
    "T": "Credit Grantor cannot locate customer",
    "U": "Credit Grantor now located the customer"
}